	{ "mmCLK1_0_CLK1_CLK_PLL_REQ", REG_MMIO, 0x0410, 0, &mmCLK1_0_CLK1_CLK_PLL_REQ[0], sizeof(mmCLK1_0_CLK1_CLK_PLL_REQ)/sizeof(mmCLK1_0_CLK1_CLK_PLL_REQ[0]), 0, 0 },
	{ "mmCLK1_0_CLK1_CLK0_BYPASS_CNTL", REG_MMIO, 0x044a, 0, &mmCLK1_0_CLK1_CLK0_BYPASS_CNTL[0], sizeof(mmCLK1_0_CLK1_CLK0_BYPASS_CNTL)/sizeof(mmCLK1_0_CLK1_CLK0_BYPASS_CNTL[0]), 0, 0 },
	{ "mmCLK1_0_CLK1_CLK1_BYPASS_CNTL", REG_MMIO, 0x0454, 0, &mmCLK1_0_CLK1_CLK1_BYPASS_CNTL[0], sizeof(mmCLK1_0_CLK1_CLK1_BYPASS_CNTL)/sizeof(mmCLK1_0_CLK1_CLK1_BYPASS_CNTL[0]), 0, 0 },
	{ "mmCLK1_0_CLK1_CLK2_BYPASS_CNTL", REG_MMIO, 0x045e, 0, &mmCLK1_0_CLK1_CLK2_BYPASS_CNTL[0], sizeof(mmCLK1_0_CLK1_CLK2_BYPASS_CNTL)/sizeof(mmCLK1_0_CLK1_CLK2_BYPASS_CNTL[0]), 0, 0 },
	{ "mmCLK1_0_CLK1_CLK3_DS_CNTL", REG_MMIO, 0x0461, 0, &mmCLK1_0_CLK1_CLK3_DS_CNTL[0], sizeof(mmCLK1_0_CLK1_CLK3_DS_CNTL)/sizeof(mmCLK1_0_CLK1_CLK3_DS_CNTL[0]), 0, 0 },
	{ "mmCLK1_0_CLK1_CLK3_ALLOW_DS", REG_MMIO, 0x0462, 0, &mmCLK1_0_CLK1_CLK3_ALLOW_DS[0], sizeof(mmCLK1_0_CLK1_CLK3_ALLOW_DS)/sizeof(mmCLK1_0_CLK1_CLK3_ALLOW_DS[0]), 0, 0 },
	{ "mmCLK1_0_CLK1_CLK3_BYPASS_CNTL", REG_MMIO, 0x0468, 0, &mmCLK1_0_CLK1_CLK3_BYPASS_CNTL[0], sizeof(mmCLK1_0_CLK1_CLK3_BYPASS_CNTL)/sizeof(mmCLK1_0_CLK1_CLK3_BYPASS_CNTL[0]), 0, 0 },
	{ "mmCLK1_0_CLK1_CLK0_CURRENT_CNT", REG_MMIO, 0x04a7, 0, &mmCLK1_0_CLK1_CLK0_CURRENT_CNT[0], sizeof(mmCLK1_0_CLK1_CLK0_CURRENT_CNT)/sizeof(mmCLK1_0_CLK1_CLK0_CURRENT_CNT[0]), 0, 0 },
	{ "mmCLK1_0_CLK1_CLK1_CURRENT_CNT", REG_MMIO, 0x04a8, 0, &mmCLK1_0_CLK1_CLK1_CURRENT_CNT[0], sizeof(mmCLK1_0_CLK1_CLK1_CURRENT_CNT)/sizeof(mmCLK1_0_CLK1_CLK1_CURRENT_CNT[0]), 0, 0 },
	{ "mmCLK1_0_CLK1_CLK2_CURRENT_CNT", REG_MMIO, 0x04a9, 0, &mmCLK1_0_CLK1_CLK2_CURRENT_CNT[0], sizeof(mmCLK1_0_CLK1_CLK2_CURRENT_CNT)/sizeof(mmCLK1_0_CLK1_CLK2_CURRENT_CNT[0]), 0, 0 },
	{ "mmCLK1_0_CLK1_CLK3_CURRENT_CNT", REG_MMIO, 0x04aa, 0, &mmCLK1_0_CLK1_CLK3_CURRENT_CNT[0], sizeof(mmCLK1_0_CLK1_CLK3_CURRENT_CNT)/sizeof(mmCLK1_0_CLK1_CLK3_CURRENT_CNT[0]), 0, 0 },
