	{ "mmDPCSTX0_DPCSTX_TX_CLOCK_CNTL", REG_MMIO, 0x2928, 2, &mmDPCSTX0_DPCSTX_TX_CLOCK_CNTL[0], sizeof(mmDPCSTX0_DPCSTX_TX_CLOCK_CNTL)/sizeof(mmDPCSTX0_DPCSTX_TX_CLOCK_CNTL[0]), 0, 0 },
	{ "mmDPCSTX0_DPCSTX_TX_CNTL", REG_MMIO, 0x2929, 2, &mmDPCSTX0_DPCSTX_TX_CNTL[0], sizeof(mmDPCSTX0_DPCSTX_TX_CNTL)/sizeof(mmDPCSTX0_DPCSTX_TX_CNTL[0]), 0, 0 },
	{ "mmDPCSTX0_DPCSTX_CBUS_CNTL", REG_MMIO, 0x292a, 2, &mmDPCSTX0_DPCSTX_CBUS_CNTL[0], sizeof(mmDPCSTX0_DPCSTX_CBUS_CNTL)/sizeof(mmDPCSTX0_DPCSTX_CBUS_CNTL[0]), 0, 0 },
	{ "mmDPCSTX0_DPCSTX_INTERRUPT_CNTL", REG_MMIO, 0x292b, 2, &mmDPCSTX0_DPCSTX_INTERRUPT_CNTL[0], sizeof(mmDPCSTX0_DPCSTX_INTERRUPT_CNTL)/sizeof(mmDPCSTX0_DPCSTX_INTERRUPT_CNTL[0]), 0, 0 },
	{ "mmDPCSTX0_DPCSTX_PLL_UPDATE_ADDR", REG_MMIO, 0x292c, 2, &mmDPCSTX0_DPCSTX_PLL_UPDATE_ADDR[0], sizeof(mmDPCSTX0_DPCSTX_PLL_UPDATE_ADDR)/sizeof(mmDPCSTX0_DPCSTX_PLL_UPDATE_ADDR[0]), 0, 0 },
	{ "mmDPCSTX0_DPCSTX_PLL_UPDATE_DATA", REG_MMIO, 0x292d, 2, &mmDPCSTX0_DPCSTX_PLL_UPDATE_DATA[0], sizeof(mmDPCSTX0_DPCSTX_PLL_UPDATE_DATA)/sizeof(mmDPCSTX0_DPCSTX_PLL_UPDATE_DATA[0]), 0, 0 },
	{ "mmDPCSTX0_DPCSTX_DEBUG_CONFIG", REG_MMIO, 0x292e, 2, &mmDPCSTX0_DPCSTX_DEBUG_CONFIG[0], sizeof(mmDPCSTX0_DPCSTX_DEBUG_CONFIG)/sizeof(mmDPCSTX0_DPCSTX_DEBUG_CONFIG[0]), 0, 0 },
	{ "mmRDPCSTX0_RDPCSTX_CNTL", REG_MMIO, 0x2930, 2, &mmRDPCSTX0_RDPCSTX_CNTL[0], sizeof(mmRDPCSTX0_RDPCSTX_CNTL)/sizeof(mmRDPCSTX0_RDPCSTX_CNTL[0]), 0, 0 },
	{ "mmRDPCSTX0_RDPCSTX_CLOCK_CNTL", REG_MMIO, 0x2931, 2, &mmRDPCSTX0_RDPCSTX_CLOCK_CNTL[0], sizeof(mmRDPCSTX0_RDPCSTX_CLOCK_CNTL)/sizeof(mmRDPCSTX0_RDPCSTX_CLOCK_CNTL[0]), 0, 0 },
	{ "mmRDPCSTX0_RDPCSTX_INTERRUPT_CONTROL", REG_MMIO, 0x2932, 2, &mmRDPCSTX0_RDPCSTX_INTERRUPT_CONTROL[0], sizeof(mmRDPCSTX0_RDPCSTX_INTERRUPT_CONTROL)/sizeof(mmRDPCSTX0_RDPCSTX_INTERRUPT_CONTROL[0]), 0, 0 },
	{ "mmRDPCSTX0_RDPCSTX_PLL_UPDATE_DATA", REG_MMIO, 0x2933, 2, &mmRDPCSTX0_RDPCSTX_PLL_UPDATE_DATA[0], sizeof(mmRDPCSTX0_RDPCSTX_PLL_UPDATE_DATA)/sizeof(mmRDPCSTX0_RDPCSTX_PLL_UPDATE_DATA[0]), 0, 0 },
	{ "mmRDPCSTX0_RDPCS_TX_CR_ADDR", REG_MMIO, 0x2934, 2, &mmRDPCSTX0_RDPCS_TX_CR_ADDR[0], sizeof(mmRDPCSTX0_RDPCS_TX_CR_ADDR)/sizeof(mmRDPCSTX0_RDPCS_TX_CR_ADDR[0]), 0, 0 },
	{ "mmRDPCSTX0_RDPCS_TX_CR_DATA", REG_MMIO, 0x2935, 2, &mmRDPCSTX0_RDPCS_TX_CR_DATA[0], sizeof(mmRDPCSTX0_RDPCS_TX_CR_DATA)/sizeof(mmRDPCSTX0_RDPCS_TX_CR_DATA[0]), 0, 0 },
	{ "mmRDPCSTX0_RDPCS_TX_SRAM_CNTL", REG_MMIO, 0x2936, 2, &mmRDPCSTX0_RDPCS_TX_SRAM_CNTL[0], sizeof(mmRDPCSTX0_RDPCS_TX_SRAM_CNTL)/sizeof(mmRDPCSTX0_RDPCS_TX_SRAM_CNTL[0]), 0, 0 },
	{ "mmRDPCSTX0_RDPCSTX_SCRATCH", REG_MMIO, 0x2937, 2, &mmRDPCSTX0_RDPCSTX_SCRATCH[0], sizeof(mmRDPCSTX0_RDPCSTX_SCRATCH)/sizeof(mmRDPCSTX0_RDPCSTX_SCRATCH[0]), 0, 0 },
	{ "mmRDPCSTX0_RDPCSTX_SPARE", REG_MMIO, 0x2938, 2, &mmRDPCSTX0_RDPCSTX_SPARE[0], sizeof(mmRDPCSTX0_RDPCSTX_SPARE)/sizeof(mmRDPCSTX0_RDPCSTX_SPARE[0]), 0, 0 },
	{ "mmRDPCSTX0_RDPCSTX_CNTL2", REG_MMIO, 0x2939, 2, &mmRDPCSTX0_RDPCSTX_CNTL2[0], sizeof(mmRDPCSTX0_RDPCSTX_CNTL2)/sizeof(mmRDPCSTX0_RDPCSTX_CNTL2[0]), 0, 0 },
	{ "mmRDPCSTX0_RDPCSTX_DMCU_DPALT_DIS_BLOCK_REG", REG_MMIO, 0x293c, 2, &mmRDPCSTX0_RDPCSTX_DMCU_DPALT_DIS_BLOCK_REG[0], sizeof(mmRDPCSTX0_RDPCSTX_DMCU_DPALT_DIS_BLOCK_REG)/sizeof(mmRDPCSTX0_RDPCSTX_DMCU_DPALT_DIS_BLOCK_REG[0]), 0, 0 },
	{ "mmRDPCSTX0_RDPCSTX_DEBUG_CONFIG", REG_MMIO, 0x293d, 2, &mmRDPCSTX0_RDPCSTX_DEBUG_CONFIG[0], sizeof(mmRDPCSTX0_RDPCSTX_DEBUG_CONFIG)/sizeof(mmRDPCSTX0_RDPCSTX_DEBUG_CONFIG[0]), 0, 0 },
	{ "mmRDPCSTX0_RDPCSTX_PHY_CNTL0", REG_MMIO, 0x2940, 2, &mmRDPCSTX0_RDPCSTX_PHY_CNTL0[0], sizeof(mmRDPCSTX0_RDPCSTX_PHY_CNTL0)/sizeof(mmRDPCSTX0_RDPCSTX_PHY_CNTL0[0]), 0, 0 },
	{ "mmRDPCSTX0_RDPCSTX_PHY_CNTL1", REG_MMIO, 0x2941, 2, &mmRDPCSTX0_RDPCSTX_PHY_CNTL1[0], sizeof(mmRDPCSTX0_RDPCSTX_PHY_CNTL1)/sizeof(mmRDPCSTX0_RDPCSTX_PHY_CNTL1[0]), 0, 0 },
	{ "mmRDPCSTX0_RDPCSTX_PHY_CNTL2", REG_MMIO, 0x2942, 2, &mmRDPCSTX0_RDPCSTX_PHY_CNTL2[0], sizeof(mmRDPCSTX0_RDPCSTX_PHY_CNTL2)/sizeof(mmRDPCSTX0_RDPCSTX_PHY_CNTL2[0]), 0, 0 },
	{ "mmRDPCSTX0_RDPCSTX_PHY_CNTL3", REG_MMIO, 0x2943, 2, &mmRDPCSTX0_RDPCSTX_PHY_CNTL3[0], sizeof(mmRDPCSTX0_RDPCSTX_PHY_CNTL3)/sizeof(mmRDPCSTX0_RDPCSTX_PHY_CNTL3[0]), 0, 0 },
	{ "mmRDPCSTX0_RDPCSTX_PHY_CNTL4", REG_MMIO, 0x2944, 2, &mmRDPCSTX0_RDPCSTX_PHY_CNTL4[0], sizeof(mmRDPCSTX0_RDPCSTX_PHY_CNTL4)/sizeof(mmRDPCSTX0_RDPCSTX_PHY_CNTL4[0]), 0, 0 },
	{ "mmRDPCSTX0_RDPCSTX_PHY_CNTL5", REG_MMIO, 0x2945, 2, &mmRDPCSTX0_RDPCSTX_PHY_CNTL5[0], sizeof(mmRDPCSTX0_RDPCSTX_PHY_CNTL5)/sizeof(mmRDPCSTX0_RDPCSTX_PHY_CNTL5[0]), 0, 0 },
	{ "mmRDPCSTX0_RDPCSTX_PHY_CNTL6", REG_MMIO, 0x2946, 2, &mmRDPCSTX0_RDPCSTX_PHY_CNTL6[0], sizeof(mmRDPCSTX0_RDPCSTX_PHY_CNTL6)/sizeof(mmRDPCSTX0_RDPCSTX_PHY_CNTL6[0]), 0, 0 },
	{ "mmRDPCSTX0_RDPCSTX_PHY_CNTL7", REG_MMIO, 0x2947, 2, &mmRDPCSTX0_RDPCSTX_PHY_CNTL7[0], sizeof(mmRDPCSTX0_RDPCSTX_PHY_CNTL7)/sizeof(mmRDPCSTX0_RDPCSTX_PHY_CNTL7[0]), 0, 0 },
	{ "mmRDPCSTX0_RDPCSTX_PHY_CNTL8", REG_MMIO, 0x2948, 2, &mmRDPCSTX0_RDPCSTX_PHY_CNTL8[0], sizeof(mmRDPCSTX0_RDPCSTX_PHY_CNTL8)/sizeof(mmRDPCSTX0_RDPCSTX_PHY_CNTL8[0]), 0, 0 },
	{ "mmRDPCSTX0_RDPCSTX_PHY_CNTL9", REG_MMIO, 0x2949, 2, &mmRDPCSTX0_RDPCSTX_PHY_CNTL9[0], sizeof(mmRDPCSTX0_RDPCSTX_PHY_CNTL9)/sizeof(mmRDPCSTX0_RDPCSTX_PHY_CNTL9[0]), 0, 0 },
	{ "mmRDPCSTX0_RDPCSTX_PHY_CNTL10", REG_MMIO, 0x294a, 2, &mmRDPCSTX0_RDPCSTX_PHY_CNTL10[0], sizeof(mmRDPCSTX0_RDPCSTX_PHY_CNTL10)/sizeof(mmRDPCSTX0_RDPCSTX_PHY_CNTL10[0]), 0, 0 },
	{ "mmRDPCSTX0_RDPCSTX_PHY_CNTL11", REG_MMIO, 0x294b, 2, &mmRDPCSTX0_RDPCSTX_PHY_CNTL11[0], sizeof(mmRDPCSTX0_RDPCSTX_PHY_CNTL11)/sizeof(mmRDPCSTX0_RDPCSTX_PHY_CNTL11[0]), 0, 0 },
	{ "mmRDPCSTX0_RDPCSTX_PHY_CNTL12", REG_MMIO, 0x294c, 2, &mmRDPCSTX0_RDPCSTX_PHY_CNTL12[0], sizeof(mmRDPCSTX0_RDPCSTX_PHY_CNTL12)/sizeof(mmRDPCSTX0_RDPCSTX_PHY_CNTL12[0]), 0, 0 },
	{ "mmRDPCSTX0_RDPCSTX_PHY_CNTL13", REG_MMIO, 0x294d, 2, &mmRDPCSTX0_RDPCSTX_PHY_CNTL13[0], sizeof(mmRDPCSTX0_RDPCSTX_PHY_CNTL13)/sizeof(mmRDPCSTX0_RDPCSTX_PHY_CNTL13[0]), 0, 0 },
	{ "mmRDPCSTX0_RDPCSTX_PHY_CNTL14", REG_MMIO, 0x294e, 2, &mmRDPCSTX0_RDPCSTX_PHY_CNTL14[0], sizeof(mmRDPCSTX0_RDPCSTX_PHY_CNTL14)/sizeof(mmRDPCSTX0_RDPCSTX_PHY_CNTL14[0]), 0, 0 },
	{ "mmRDPCSTX0_RDPCSTX_PHY_FUSE0", REG_MMIO, 0x294f, 2, &mmRDPCSTX0_RDPCSTX_PHY_FUSE0[0], sizeof(mmRDPCSTX0_RDPCSTX_PHY_FUSE0)/sizeof(mmRDPCSTX0_RDPCSTX_PHY_FUSE0[0]), 0, 0 },
	{ "mmRDPCSTX0_RDPCSTX_PHY_FUSE1", REG_MMIO, 0x2950, 2, &mmRDPCSTX0_RDPCSTX_PHY_FUSE1[0], sizeof(mmRDPCSTX0_RDPCSTX_PHY_FUSE1)/sizeof(mmRDPCSTX0_RDPCSTX_PHY_FUSE1[0]), 0, 0 },
	{ "mmRDPCSTX0_RDPCSTX_PHY_FUSE2", REG_MMIO, 0x2951, 2, &mmRDPCSTX0_RDPCSTX_PHY_FUSE2[0], sizeof(mmRDPCSTX0_RDPCSTX_PHY_FUSE2)/sizeof(mmRDPCSTX0_RDPCSTX_PHY_FUSE2[0]), 0, 0 },
	{ "mmRDPCSTX0_RDPCSTX_PHY_FUSE3", REG_MMIO, 0x2952, 2, &mmRDPCSTX0_RDPCSTX_PHY_FUSE3[0], sizeof(mmRDPCSTX0_RDPCSTX_PHY_FUSE3)/sizeof(mmRDPCSTX0_RDPCSTX_PHY_FUSE3[0]), 0, 0 },
	{ "mmRDPCSTX0_RDPCSTX_PHY_RX_LD_VAL", REG_MMIO, 0x2953, 2, &mmRDPCSTX0_RDPCSTX_PHY_RX_LD_VAL[0], sizeof(mmRDPCSTX0_RDPCSTX_PHY_RX_LD_VAL)/sizeof(mmRDPCSTX0_RDPCSTX_PHY_RX_LD_VAL[0]), 0, 0 },
	{ "mmRDPCSTX0_RDPCSTX_DMCU_DPALT_PHY_CNTL3", REG_MMIO, 0x2954, 2, &mmRDPCSTX0_RDPCSTX_DMCU_DPALT_PHY_CNTL3[0], sizeof(mmRDPCSTX0_RDPCSTX_DMCU_DPALT_PHY_CNTL3)/sizeof(mmRDPCSTX0_RDPCSTX_DMCU_DPALT_PHY_CNTL3[0]), 0, 0 },
	{ "mmRDPCSTX0_RDPCSTX_DMCU_DPALT_PHY_CNTL6", REG_MMIO, 0x2955, 2, &mmRDPCSTX0_RDPCSTX_DMCU_DPALT_PHY_CNTL6[0], sizeof(mmRDPCSTX0_RDPCSTX_DMCU_DPALT_PHY_CNTL6)/sizeof(mmRDPCSTX0_RDPCSTX_DMCU_DPALT_PHY_CNTL6[0]), 0, 0 },
	{ "mmRDPCSTX0_RDPCSTX_DPALT_CONTROL_REG", REG_MMIO, 0x2956, 2, &mmRDPCSTX0_RDPCSTX_DPALT_CONTROL_REG[0], sizeof(mmRDPCSTX0_RDPCSTX_DPALT_CONTROL_REG)/sizeof(mmRDPCSTX0_RDPCSTX_DPALT_CONTROL_REG[0]), 0, 0 },
	{ "mmRDPCSTX0_RDPCSTX_PHY_CNTL15", REG_MMIO, 0x2958, 2, &mmRDPCSTX0_RDPCSTX_PHY_CNTL15[0], sizeof(mmRDPCSTX0_RDPCSTX_PHY_CNTL15)/sizeof(mmRDPCSTX0_RDPCSTX_PHY_CNTL15[0]), 0, 0 },
	{ "mmRDPCSTX0_RDPCSTX_PHY_CNTL16", REG_MMIO, 0x2959, 2, &mmRDPCSTX0_RDPCSTX_PHY_CNTL16[0], sizeof(mmRDPCSTX0_RDPCSTX_PHY_CNTL16)/sizeof(mmRDPCSTX0_RDPCSTX_PHY_CNTL16[0]), 0, 0 },
	{ "mmRDPCSTX0_RDPCSTX_PHY_CNTL17", REG_MMIO, 0x295a, 2, &mmRDPCSTX0_RDPCSTX_PHY_CNTL17[0], sizeof(mmRDPCSTX0_RDPCSTX_PHY_CNTL17)/sizeof(mmRDPCSTX0_RDPCSTX_PHY_CNTL17[0]), 0, 0 },
	{ "mmRDPCSTX0_RDPCSTX_DEBUG_CONFIG2", REG_MMIO, 0x295b, 2, &mmRDPCSTX0_RDPCSTX_DEBUG_CONFIG2[0], sizeof(mmRDPCSTX0_RDPCSTX_DEBUG_CONFIG2)/sizeof(mmRDPCSTX0_RDPCSTX_DEBUG_CONFIG2[0]), 0, 0 },
	{ "mmDPCSSYS_CR0_DPCSSYS_CR_ADDR", REG_MMIO, 0x2934, 2, &mmDPCSSYS_CR0_DPCSSYS_CR_ADDR[0], sizeof(mmDPCSSYS_CR0_DPCSSYS_CR_ADDR)/sizeof(mmDPCSSYS_CR0_DPCSSYS_CR_ADDR[0]), 0, 0 },
	{ "mmDPCSSYS_CR0_DPCSSYS_CR_DATA", REG_MMIO, 0x2935, 2, &mmDPCSSYS_CR0_DPCSSYS_CR_DATA[0], sizeof(mmDPCSSYS_CR0_DPCSSYS_CR_DATA)/sizeof(mmDPCSSYS_CR0_DPCSSYS_CR_DATA[0]), 0, 0 },
	{ "mmDPCSTX1_DPCSTX_TX_CLOCK_CNTL", REG_MMIO, 0x2a00, 2, &mmDPCSTX1_DPCSTX_TX_CLOCK_CNTL[0], sizeof(mmDPCSTX1_DPCSTX_TX_CLOCK_CNTL)/sizeof(mmDPCSTX1_DPCSTX_TX_CLOCK_CNTL[0]), 0, 0 },
	{ "mmDPCSTX1_DPCSTX_TX_CNTL", REG_MMIO, 0x2a01, 2, &mmDPCSTX1_DPCSTX_TX_CNTL[0], sizeof(mmDPCSTX1_DPCSTX_TX_CNTL)/sizeof(mmDPCSTX1_DPCSTX_TX_CNTL[0]), 0, 0 },
	{ "mmDPCSTX1_DPCSTX_CBUS_CNTL", REG_MMIO, 0x2a02, 2, &mmDPCSTX1_DPCSTX_CBUS_CNTL[0], sizeof(mmDPCSTX1_DPCSTX_CBUS_CNTL)/sizeof(mmDPCSTX1_DPCSTX_CBUS_CNTL[0]), 0, 0 },
	{ "mmDPCSTX1_DPCSTX_INTERRUPT_CNTL", REG_MMIO, 0x2a03, 2, &mmDPCSTX1_DPCSTX_INTERRUPT_CNTL[0], sizeof(mmDPCSTX1_DPCSTX_INTERRUPT_CNTL)/sizeof(mmDPCSTX1_DPCSTX_INTERRUPT_CNTL[0]), 0, 0 },
	{ "mmDPCSTX1_DPCSTX_PLL_UPDATE_ADDR", REG_MMIO, 0x2a04, 2, &mmDPCSTX1_DPCSTX_PLL_UPDATE_ADDR[0], sizeof(mmDPCSTX1_DPCSTX_PLL_UPDATE_ADDR)/sizeof(mmDPCSTX1_DPCSTX_PLL_UPDATE_ADDR[0]), 0, 0 },
	{ "mmDPCSTX1_DPCSTX_PLL_UPDATE_DATA", REG_MMIO, 0x2a05, 2, &mmDPCSTX1_DPCSTX_PLL_UPDATE_DATA[0], sizeof(mmDPCSTX1_DPCSTX_PLL_UPDATE_DATA)/sizeof(mmDPCSTX1_DPCSTX_PLL_UPDATE_DATA[0]), 0, 0 },
	{ "mmDPCSTX1_DPCSTX_DEBUG_CONFIG", REG_MMIO, 0x2a06, 2, &mmDPCSTX1_DPCSTX_DEBUG_CONFIG[0], sizeof(mmDPCSTX1_DPCSTX_DEBUG_CONFIG)/sizeof(mmDPCSTX1_DPCSTX_DEBUG_CONFIG[0]), 0, 0 },
	{ "mmRDPCSTX1_RDPCSTX_CNTL", REG_MMIO, 0x2a08, 2, &mmRDPCSTX1_RDPCSTX_CNTL[0], sizeof(mmRDPCSTX1_RDPCSTX_CNTL)/sizeof(mmRDPCSTX1_RDPCSTX_CNTL[0]), 0, 0 },
	{ "mmRDPCSTX1_RDPCSTX_CLOCK_CNTL", REG_MMIO, 0x2a09, 2, &mmRDPCSTX1_RDPCSTX_CLOCK_CNTL[0], sizeof(mmRDPCSTX1_RDPCSTX_CLOCK_CNTL)/sizeof(mmRDPCSTX1_RDPCSTX_CLOCK_CNTL[0]), 0, 0 },
	{ "mmRDPCSTX1_RDPCSTX_INTERRUPT_CONTROL", REG_MMIO, 0x2a0a, 2, &mmRDPCSTX1_RDPCSTX_INTERRUPT_CONTROL[0], sizeof(mmRDPCSTX1_RDPCSTX_INTERRUPT_CONTROL)/sizeof(mmRDPCSTX1_RDPCSTX_INTERRUPT_CONTROL[0]), 0, 0 },
	{ "mmRDPCSTX1_RDPCSTX_PLL_UPDATE_DATA", REG_MMIO, 0x2a0b, 2, &mmRDPCSTX1_RDPCSTX_PLL_UPDATE_DATA[0], sizeof(mmRDPCSTX1_RDPCSTX_PLL_UPDATE_DATA)/sizeof(mmRDPCSTX1_RDPCSTX_PLL_UPDATE_DATA[0]), 0, 0 },
	{ "mmRDPCSTX1_RDPCS_TX_CR_ADDR", REG_MMIO, 0x2a0c, 2, &mmRDPCSTX1_RDPCS_TX_CR_ADDR[0], sizeof(mmRDPCSTX1_RDPCS_TX_CR_ADDR)/sizeof(mmRDPCSTX1_RDPCS_TX_CR_ADDR[0]), 0, 0 },
	{ "mmRDPCSTX1_RDPCS_TX_CR_DATA", REG_MMIO, 0x2a0d, 2, &mmRDPCSTX1_RDPCS_TX_CR_DATA[0], sizeof(mmRDPCSTX1_RDPCS_TX_CR_DATA)/sizeof(mmRDPCSTX1_RDPCS_TX_CR_DATA[0]), 0, 0 },
	{ "mmRDPCSTX1_RDPCS_TX_SRAM_CNTL", REG_MMIO, 0x2a0e, 2, &mmRDPCSTX1_RDPCS_TX_SRAM_CNTL[0], sizeof(mmRDPCSTX1_RDPCS_TX_SRAM_CNTL)/sizeof(mmRDPCSTX1_RDPCS_TX_SRAM_CNTL[0]), 0, 0 },
	{ "mmRDPCSTX1_RDPCSTX_SCRATCH", REG_MMIO, 0x2a0f, 2, &mmRDPCSTX1_RDPCSTX_SCRATCH[0], sizeof(mmRDPCSTX1_RDPCSTX_SCRATCH)/sizeof(mmRDPCSTX1_RDPCSTX_SCRATCH[0]), 0, 0 },
	{ "mmRDPCSTX1_RDPCSTX_SPARE", REG_MMIO, 0x2a10, 2, &mmRDPCSTX1_RDPCSTX_SPARE[0], sizeof(mmRDPCSTX1_RDPCSTX_SPARE)/sizeof(mmRDPCSTX1_RDPCSTX_SPARE[0]), 0, 0 },
	{ "mmRDPCSTX1_RDPCSTX_CNTL2", REG_MMIO, 0x2a11, 2, &mmRDPCSTX1_RDPCSTX_CNTL2[0], sizeof(mmRDPCSTX1_RDPCSTX_CNTL2)/sizeof(mmRDPCSTX1_RDPCSTX_CNTL2[0]), 0, 0 },
	{ "mmRDPCSTX1_RDPCSTX_DMCU_DPALT_DIS_BLOCK_REG", REG_MMIO, 0x2a14, 2, &mmRDPCSTX1_RDPCSTX_DMCU_DPALT_DIS_BLOCK_REG[0], sizeof(mmRDPCSTX1_RDPCSTX_DMCU_DPALT_DIS_BLOCK_REG)/sizeof(mmRDPCSTX1_RDPCSTX_DMCU_DPALT_DIS_BLOCK_REG[0]), 0, 0 },
	{ "mmRDPCSTX1_RDPCSTX_DEBUG_CONFIG", REG_MMIO, 0x2a15, 2, &mmRDPCSTX1_RDPCSTX_DEBUG_CONFIG[0], sizeof(mmRDPCSTX1_RDPCSTX_DEBUG_CONFIG)/sizeof(mmRDPCSTX1_RDPCSTX_DEBUG_CONFIG[0]), 0, 0 },
	{ "mmRDPCSTX1_RDPCSTX_PHY_CNTL0", REG_MMIO, 0x2a18, 2, &mmRDPCSTX1_RDPCSTX_PHY_CNTL0[0], sizeof(mmRDPCSTX1_RDPCSTX_PHY_CNTL0)/sizeof(mmRDPCSTX1_RDPCSTX_PHY_CNTL0[0]), 0, 0 },
	{ "mmRDPCSTX1_RDPCSTX_PHY_CNTL1", REG_MMIO, 0x2a19, 2, &mmRDPCSTX1_RDPCSTX_PHY_CNTL1[0], sizeof(mmRDPCSTX1_RDPCSTX_PHY_CNTL1)/sizeof(mmRDPCSTX1_RDPCSTX_PHY_CNTL1[0]), 0, 0 },
	{ "mmRDPCSTX1_RDPCSTX_PHY_CNTL2", REG_MMIO, 0x2a1a, 2, &mmRDPCSTX1_RDPCSTX_PHY_CNTL2[0], sizeof(mmRDPCSTX1_RDPCSTX_PHY_CNTL2)/sizeof(mmRDPCSTX1_RDPCSTX_PHY_CNTL2[0]), 0, 0 },
	{ "mmRDPCSTX1_RDPCSTX_PHY_CNTL3", REG_MMIO, 0x2a1b, 2, &mmRDPCSTX1_RDPCSTX_PHY_CNTL3[0], sizeof(mmRDPCSTX1_RDPCSTX_PHY_CNTL3)/sizeof(mmRDPCSTX1_RDPCSTX_PHY_CNTL3[0]), 0, 0 },
	{ "mmRDPCSTX1_RDPCSTX_PHY_CNTL4", REG_MMIO, 0x2a1c, 2, &mmRDPCSTX1_RDPCSTX_PHY_CNTL4[0], sizeof(mmRDPCSTX1_RDPCSTX_PHY_CNTL4)/sizeof(mmRDPCSTX1_RDPCSTX_PHY_CNTL4[0]), 0, 0 },
	{ "mmRDPCSTX1_RDPCSTX_PHY_CNTL5", REG_MMIO, 0x2a1d, 2, &mmRDPCSTX1_RDPCSTX_PHY_CNTL5[0], sizeof(mmRDPCSTX1_RDPCSTX_PHY_CNTL5)/sizeof(mmRDPCSTX1_RDPCSTX_PHY_CNTL5[0]), 0, 0 },
	{ "mmRDPCSTX1_RDPCSTX_PHY_CNTL6", REG_MMIO, 0x2a1e, 2, &mmRDPCSTX1_RDPCSTX_PHY_CNTL6[0], sizeof(mmRDPCSTX1_RDPCSTX_PHY_CNTL6)/sizeof(mmRDPCSTX1_RDPCSTX_PHY_CNTL6[0]), 0, 0 },
	{ "mmRDPCSTX1_RDPCSTX_PHY_CNTL7", REG_MMIO, 0x2a1f, 2, &mmRDPCSTX1_RDPCSTX_PHY_CNTL7[0], sizeof(mmRDPCSTX1_RDPCSTX_PHY_CNTL7)/sizeof(mmRDPCSTX1_RDPCSTX_PHY_CNTL7[0]), 0, 0 },
	{ "mmRDPCSTX1_RDPCSTX_PHY_CNTL8", REG_MMIO, 0x2a20, 2, &mmRDPCSTX1_RDPCSTX_PHY_CNTL8[0], sizeof(mmRDPCSTX1_RDPCSTX_PHY_CNTL8)/sizeof(mmRDPCSTX1_RDPCSTX_PHY_CNTL8[0]), 0, 0 },
	{ "mmRDPCSTX1_RDPCSTX_PHY_CNTL9", REG_MMIO, 0x2a21, 2, &mmRDPCSTX1_RDPCSTX_PHY_CNTL9[0], sizeof(mmRDPCSTX1_RDPCSTX_PHY_CNTL9)/sizeof(mmRDPCSTX1_RDPCSTX_PHY_CNTL9[0]), 0, 0 },
	{ "mmRDPCSTX1_RDPCSTX_PHY_CNTL10", REG_MMIO, 0x2a22, 2, &mmRDPCSTX1_RDPCSTX_PHY_CNTL10[0], sizeof(mmRDPCSTX1_RDPCSTX_PHY_CNTL10)/sizeof(mmRDPCSTX1_RDPCSTX_PHY_CNTL10[0]), 0, 0 },
	{ "mmRDPCSTX1_RDPCSTX_PHY_CNTL11", REG_MMIO, 0x2a23, 2, &mmRDPCSTX1_RDPCSTX_PHY_CNTL11[0], sizeof(mmRDPCSTX1_RDPCSTX_PHY_CNTL11)/sizeof(mmRDPCSTX1_RDPCSTX_PHY_CNTL11[0]), 0, 0 },
	{ "mmRDPCSTX1_RDPCSTX_PHY_CNTL12", REG_MMIO, 0x2a24, 2, &mmRDPCSTX1_RDPCSTX_PHY_CNTL12[0], sizeof(mmRDPCSTX1_RDPCSTX_PHY_CNTL12)/sizeof(mmRDPCSTX1_RDPCSTX_PHY_CNTL12[0]), 0, 0 },
	{ "mmRDPCSTX1_RDPCSTX_PHY_CNTL13", REG_MMIO, 0x2a25, 2, &mmRDPCSTX1_RDPCSTX_PHY_CNTL13[0], sizeof(mmRDPCSTX1_RDPCSTX_PHY_CNTL13)/sizeof(mmRDPCSTX1_RDPCSTX_PHY_CNTL13[0]), 0, 0 },
	{ "mmRDPCSTX1_RDPCSTX_PHY_CNTL14", REG_MMIO, 0x2a26, 2, &mmRDPCSTX1_RDPCSTX_PHY_CNTL14[0], sizeof(mmRDPCSTX1_RDPCSTX_PHY_CNTL14)/sizeof(mmRDPCSTX1_RDPCSTX_PHY_CNTL14[0]), 0, 0 },
	{ "mmRDPCSTX1_RDPCSTX_PHY_FUSE0", REG_MMIO, 0x2a27, 2, &mmRDPCSTX1_RDPCSTX_PHY_FUSE0[0], sizeof(mmRDPCSTX1_RDPCSTX_PHY_FUSE0)/sizeof(mmRDPCSTX1_RDPCSTX_PHY_FUSE0[0]), 0, 0 },
	{ "mmRDPCSTX1_RDPCSTX_PHY_FUSE1", REG_MMIO, 0x2a28, 2, &mmRDPCSTX1_RDPCSTX_PHY_FUSE1[0], sizeof(mmRDPCSTX1_RDPCSTX_PHY_FUSE1)/sizeof(mmRDPCSTX1_RDPCSTX_PHY_FUSE1[0]), 0, 0 },
	{ "mmRDPCSTX1_RDPCSTX_PHY_FUSE2", REG_MMIO, 0x2a29, 2, &mmRDPCSTX1_RDPCSTX_PHY_FUSE2[0], sizeof(mmRDPCSTX1_RDPCSTX_PHY_FUSE2)/sizeof(mmRDPCSTX1_RDPCSTX_PHY_FUSE2[0]), 0, 0 },
	{ "mmRDPCSTX1_RDPCSTX_PHY_FUSE3", REG_MMIO, 0x2a2a, 2, &mmRDPCSTX1_RDPCSTX_PHY_FUSE3[0], sizeof(mmRDPCSTX1_RDPCSTX_PHY_FUSE3)/sizeof(mmRDPCSTX1_RDPCSTX_PHY_FUSE3[0]), 0, 0 },
	{ "mmRDPCSTX1_RDPCSTX_PHY_RX_LD_VAL", REG_MMIO, 0x2a2b, 2, &mmRDPCSTX1_RDPCSTX_PHY_RX_LD_VAL[0], sizeof(mmRDPCSTX1_RDPCSTX_PHY_RX_LD_VAL)/sizeof(mmRDPCSTX1_RDPCSTX_PHY_RX_LD_VAL[0]), 0, 0 },
	{ "mmRDPCSTX1_RDPCSTX_DMCU_DPALT_PHY_CNTL3", REG_MMIO, 0x2a2c, 2, &mmRDPCSTX1_RDPCSTX_DMCU_DPALT_PHY_CNTL3[0], sizeof(mmRDPCSTX1_RDPCSTX_DMCU_DPALT_PHY_CNTL3)/sizeof(mmRDPCSTX1_RDPCSTX_DMCU_DPALT_PHY_CNTL3[0]), 0, 0 },
	{ "mmRDPCSTX1_RDPCSTX_DMCU_DPALT_PHY_CNTL6", REG_MMIO, 0x2a2d, 2, &mmRDPCSTX1_RDPCSTX_DMCU_DPALT_PHY_CNTL6[0], sizeof(mmRDPCSTX1_RDPCSTX_DMCU_DPALT_PHY_CNTL6)/sizeof(mmRDPCSTX1_RDPCSTX_DMCU_DPALT_PHY_CNTL6[0]), 0, 0 },
	{ "mmRDPCSTX1_RDPCSTX_DPALT_CONTROL_REG", REG_MMIO, 0x2a2e, 2, &mmRDPCSTX1_RDPCSTX_DPALT_CONTROL_REG[0], sizeof(mmRDPCSTX1_RDPCSTX_DPALT_CONTROL_REG)/sizeof(mmRDPCSTX1_RDPCSTX_DPALT_CONTROL_REG[0]), 0, 0 },
	{ "mmRDPCSTX1_RDPCSTX_PHY_CNTL15", REG_MMIO, 0x2a30, 2, &mmRDPCSTX1_RDPCSTX_PHY_CNTL15[0], sizeof(mmRDPCSTX1_RDPCSTX_PHY_CNTL15)/sizeof(mmRDPCSTX1_RDPCSTX_PHY_CNTL15[0]), 0, 0 },
	{ "mmRDPCSTX1_RDPCSTX_PHY_CNTL16", REG_MMIO, 0x2a31, 2, &mmRDPCSTX1_RDPCSTX_PHY_CNTL16[0], sizeof(mmRDPCSTX1_RDPCSTX_PHY_CNTL16)/sizeof(mmRDPCSTX1_RDPCSTX_PHY_CNTL16[0]), 0, 0 },
	{ "mmRDPCSTX1_RDPCSTX_PHY_CNTL17", REG_MMIO, 0x2a32, 2, &mmRDPCSTX1_RDPCSTX_PHY_CNTL17[0], sizeof(mmRDPCSTX1_RDPCSTX_PHY_CNTL17)/sizeof(mmRDPCSTX1_RDPCSTX_PHY_CNTL17[0]), 0, 0 },
	{ "mmRDPCSTX1_RDPCSTX_DEBUG_CONFIG2", REG_MMIO, 0x2a33, 2, &mmRDPCSTX1_RDPCSTX_DEBUG_CONFIG2[0], sizeof(mmRDPCSTX1_RDPCSTX_DEBUG_CONFIG2)/sizeof(mmRDPCSTX1_RDPCSTX_DEBUG_CONFIG2[0]), 0, 0 },
	{ "mmDPCSSYS_CR1_DPCSSYS_CR_ADDR", REG_MMIO, 0x2a0c, 2, &mmDPCSSYS_CR1_DPCSSYS_CR_ADDR[0], sizeof(mmDPCSSYS_CR1_DPCSSYS_CR_ADDR)/sizeof(mmDPCSSYS_CR1_DPCSSYS_CR_ADDR[0]), 0, 0 },
	{ "mmDPCSSYS_CR1_DPCSSYS_CR_DATA", REG_MMIO, 0x2a0d, 2, &mmDPCSSYS_CR1_DPCSSYS_CR_DATA[0], sizeof(mmDPCSSYS_CR1_DPCSSYS_CR_DATA)/sizeof(mmDPCSSYS_CR1_DPCSSYS_CR_DATA[0]), 0, 0 },
	{ "mmDPCSTX2_DPCSTX_TX_CLOCK_CNTL", REG_MMIO, 0x2ad8, 2, &mmDPCSTX2_DPCSTX_TX_CLOCK_CNTL[0], sizeof(mmDPCSTX2_DPCSTX_TX_CLOCK_CNTL)/sizeof(mmDPCSTX2_DPCSTX_TX_CLOCK_CNTL[0]), 0, 0 },
	{ "mmDPCSTX2_DPCSTX_TX_CNTL", REG_MMIO, 0x2ad9, 2, &mmDPCSTX2_DPCSTX_TX_CNTL[0], sizeof(mmDPCSTX2_DPCSTX_TX_CNTL)/sizeof(mmDPCSTX2_DPCSTX_TX_CNTL[0]), 0, 0 },
	{ "mmDPCSTX2_DPCSTX_CBUS_CNTL", REG_MMIO, 0x2ada, 2, &mmDPCSTX2_DPCSTX_CBUS_CNTL[0], sizeof(mmDPCSTX2_DPCSTX_CBUS_CNTL)/sizeof(mmDPCSTX2_DPCSTX_CBUS_CNTL[0]), 0, 0 },
	{ "mmDPCSTX2_DPCSTX_INTERRUPT_CNTL", REG_MMIO, 0x2adb, 2, &mmDPCSTX2_DPCSTX_INTERRUPT_CNTL[0], sizeof(mmDPCSTX2_DPCSTX_INTERRUPT_CNTL)/sizeof(mmDPCSTX2_DPCSTX_INTERRUPT_CNTL[0]), 0, 0 },
	{ "mmDPCSTX2_DPCSTX_PLL_UPDATE_ADDR", REG_MMIO, 0x2adc, 2, &mmDPCSTX2_DPCSTX_PLL_UPDATE_ADDR[0], sizeof(mmDPCSTX2_DPCSTX_PLL_UPDATE_ADDR)/sizeof(mmDPCSTX2_DPCSTX_PLL_UPDATE_ADDR[0]), 0, 0 },
	{ "mmDPCSTX2_DPCSTX_PLL_UPDATE_DATA", REG_MMIO, 0x2add, 2, &mmDPCSTX2_DPCSTX_PLL_UPDATE_DATA[0], sizeof(mmDPCSTX2_DPCSTX_PLL_UPDATE_DATA)/sizeof(mmDPCSTX2_DPCSTX_PLL_UPDATE_DATA[0]), 0, 0 },
	{ "mmDPCSTX2_DPCSTX_DEBUG_CONFIG", REG_MMIO, 0x2ade, 2, &mmDPCSTX2_DPCSTX_DEBUG_CONFIG[0], sizeof(mmDPCSTX2_DPCSTX_DEBUG_CONFIG)/sizeof(mmDPCSTX2_DPCSTX_DEBUG_CONFIG[0]), 0, 0 },
	{ "mmRDPCSTX2_RDPCSTX_CNTL", REG_MMIO, 0x2ae0, 2, &mmRDPCSTX2_RDPCSTX_CNTL[0], sizeof(mmRDPCSTX2_RDPCSTX_CNTL)/sizeof(mmRDPCSTX2_RDPCSTX_CNTL[0]), 0, 0 },
	{ "mmRDPCSTX2_RDPCSTX_CLOCK_CNTL", REG_MMIO, 0x2ae1, 2, &mmRDPCSTX2_RDPCSTX_CLOCK_CNTL[0], sizeof(mmRDPCSTX2_RDPCSTX_CLOCK_CNTL)/sizeof(mmRDPCSTX2_RDPCSTX_CLOCK_CNTL[0]), 0, 0 },
	{ "mmRDPCSTX2_RDPCSTX_INTERRUPT_CONTROL", REG_MMIO, 0x2ae2, 2, &mmRDPCSTX2_RDPCSTX_INTERRUPT_CONTROL[0], sizeof(mmRDPCSTX2_RDPCSTX_INTERRUPT_CONTROL)/sizeof(mmRDPCSTX2_RDPCSTX_INTERRUPT_CONTROL[0]), 0, 0 },
	{ "mmRDPCSTX2_RDPCSTX_PLL_UPDATE_DATA", REG_MMIO, 0x2ae3, 2, &mmRDPCSTX2_RDPCSTX_PLL_UPDATE_DATA[0], sizeof(mmRDPCSTX2_RDPCSTX_PLL_UPDATE_DATA)/sizeof(mmRDPCSTX2_RDPCSTX_PLL_UPDATE_DATA[0]), 0, 0 },
	{ "mmRDPCSTX2_RDPCS_TX_CR_ADDR", REG_MMIO, 0x2ae4, 2, &mmRDPCSTX2_RDPCS_TX_CR_ADDR[0], sizeof(mmRDPCSTX2_RDPCS_TX_CR_ADDR)/sizeof(mmRDPCSTX2_RDPCS_TX_CR_ADDR[0]), 0, 0 },
	{ "mmRDPCSTX2_RDPCS_TX_CR_DATA", REG_MMIO, 0x2ae5, 2, &mmRDPCSTX2_RDPCS_TX_CR_DATA[0], sizeof(mmRDPCSTX2_RDPCS_TX_CR_DATA)/sizeof(mmRDPCSTX2_RDPCS_TX_CR_DATA[0]), 0, 0 },
	{ "mmRDPCSTX2_RDPCS_TX_SRAM_CNTL", REG_MMIO, 0x2ae6, 2, &mmRDPCSTX2_RDPCS_TX_SRAM_CNTL[0], sizeof(mmRDPCSTX2_RDPCS_TX_SRAM_CNTL)/sizeof(mmRDPCSTX2_RDPCS_TX_SRAM_CNTL[0]), 0, 0 },
	{ "mmRDPCSTX2_RDPCSTX_SCRATCH", REG_MMIO, 0x2ae7, 2, &mmRDPCSTX2_RDPCSTX_SCRATCH[0], sizeof(mmRDPCSTX2_RDPCSTX_SCRATCH)/sizeof(mmRDPCSTX2_RDPCSTX_SCRATCH[0]), 0, 0 },
	{ "mmRDPCSTX2_RDPCSTX_SPARE", REG_MMIO, 0x2ae8, 2, &mmRDPCSTX2_RDPCSTX_SPARE[0], sizeof(mmRDPCSTX2_RDPCSTX_SPARE)/sizeof(mmRDPCSTX2_RDPCSTX_SPARE[0]), 0, 0 },
	{ "mmRDPCSTX2_RDPCSTX_CNTL2", REG_MMIO, 0x2ae9, 2, &mmRDPCSTX2_RDPCSTX_CNTL2[0], sizeof(mmRDPCSTX2_RDPCSTX_CNTL2)/sizeof(mmRDPCSTX2_RDPCSTX_CNTL2[0]), 0, 0 },
	{ "mmRDPCSTX2_RDPCSTX_DMCU_DPALT_DIS_BLOCK_REG", REG_MMIO, 0x2aec, 2, &mmRDPCSTX2_RDPCSTX_DMCU_DPALT_DIS_BLOCK_REG[0], sizeof(mmRDPCSTX2_RDPCSTX_DMCU_DPALT_DIS_BLOCK_REG)/sizeof(mmRDPCSTX2_RDPCSTX_DMCU_DPALT_DIS_BLOCK_REG[0]), 0, 0 },
	{ "mmRDPCSTX2_RDPCSTX_DEBUG_CONFIG", REG_MMIO, 0x2aed, 2, &mmRDPCSTX2_RDPCSTX_DEBUG_CONFIG[0], sizeof(mmRDPCSTX2_RDPCSTX_DEBUG_CONFIG)/sizeof(mmRDPCSTX2_RDPCSTX_DEBUG_CONFIG[0]), 0, 0 },
	{ "mmRDPCSTX2_RDPCSTX_PHY_CNTL0", REG_MMIO, 0x2af0, 2, &mmRDPCSTX2_RDPCSTX_PHY_CNTL0[0], sizeof(mmRDPCSTX2_RDPCSTX_PHY_CNTL0)/sizeof(mmRDPCSTX2_RDPCSTX_PHY_CNTL0[0]), 0, 0 },
	{ "mmRDPCSTX2_RDPCSTX_PHY_CNTL1", REG_MMIO, 0x2af1, 2, &mmRDPCSTX2_RDPCSTX_PHY_CNTL1[0], sizeof(mmRDPCSTX2_RDPCSTX_PHY_CNTL1)/sizeof(mmRDPCSTX2_RDPCSTX_PHY_CNTL1[0]), 0, 0 },
	{ "mmRDPCSTX2_RDPCSTX_PHY_CNTL2", REG_MMIO, 0x2af2, 2, &mmRDPCSTX2_RDPCSTX_PHY_CNTL2[0], sizeof(mmRDPCSTX2_RDPCSTX_PHY_CNTL2)/sizeof(mmRDPCSTX2_RDPCSTX_PHY_CNTL2[0]), 0, 0 },
	{ "mmRDPCSTX2_RDPCSTX_PHY_CNTL3", REG_MMIO, 0x2af3, 2, &mmRDPCSTX2_RDPCSTX_PHY_CNTL3[0], sizeof(mmRDPCSTX2_RDPCSTX_PHY_CNTL3)/sizeof(mmRDPCSTX2_RDPCSTX_PHY_CNTL3[0]), 0, 0 },
	{ "mmRDPCSTX2_RDPCSTX_PHY_CNTL4", REG_MMIO, 0x2af4, 2, &mmRDPCSTX2_RDPCSTX_PHY_CNTL4[0], sizeof(mmRDPCSTX2_RDPCSTX_PHY_CNTL4)/sizeof(mmRDPCSTX2_RDPCSTX_PHY_CNTL4[0]), 0, 0 },
	{ "mmRDPCSTX2_RDPCSTX_PHY_CNTL5", REG_MMIO, 0x2af5, 2, &mmRDPCSTX2_RDPCSTX_PHY_CNTL5[0], sizeof(mmRDPCSTX2_RDPCSTX_PHY_CNTL5)/sizeof(mmRDPCSTX2_RDPCSTX_PHY_CNTL5[0]), 0, 0 },
	{ "mmRDPCSTX2_RDPCSTX_PHY_CNTL6", REG_MMIO, 0x2af6, 2, &mmRDPCSTX2_RDPCSTX_PHY_CNTL6[0], sizeof(mmRDPCSTX2_RDPCSTX_PHY_CNTL6)/sizeof(mmRDPCSTX2_RDPCSTX_PHY_CNTL6[0]), 0, 0 },
	{ "mmRDPCSTX2_RDPCSTX_PHY_CNTL7", REG_MMIO, 0x2af7, 2, &mmRDPCSTX2_RDPCSTX_PHY_CNTL7[0], sizeof(mmRDPCSTX2_RDPCSTX_PHY_CNTL7)/sizeof(mmRDPCSTX2_RDPCSTX_PHY_CNTL7[0]), 0, 0 },
	{ "mmRDPCSTX2_RDPCSTX_PHY_CNTL8", REG_MMIO, 0x2af8, 2, &mmRDPCSTX2_RDPCSTX_PHY_CNTL8[0], sizeof(mmRDPCSTX2_RDPCSTX_PHY_CNTL8)/sizeof(mmRDPCSTX2_RDPCSTX_PHY_CNTL8[0]), 0, 0 },
	{ "mmRDPCSTX2_RDPCSTX_PHY_CNTL9", REG_MMIO, 0x2af9, 2, &mmRDPCSTX2_RDPCSTX_PHY_CNTL9[0], sizeof(mmRDPCSTX2_RDPCSTX_PHY_CNTL9)/sizeof(mmRDPCSTX2_RDPCSTX_PHY_CNTL9[0]), 0, 0 },
	{ "mmRDPCSTX2_RDPCSTX_PHY_CNTL10", REG_MMIO, 0x2afa, 2, &mmRDPCSTX2_RDPCSTX_PHY_CNTL10[0], sizeof(mmRDPCSTX2_RDPCSTX_PHY_CNTL10)/sizeof(mmRDPCSTX2_RDPCSTX_PHY_CNTL10[0]), 0, 0 },
	{ "mmRDPCSTX2_RDPCSTX_PHY_CNTL11", REG_MMIO, 0x2afb, 2, &mmRDPCSTX2_RDPCSTX_PHY_CNTL11[0], sizeof(mmRDPCSTX2_RDPCSTX_PHY_CNTL11)/sizeof(mmRDPCSTX2_RDPCSTX_PHY_CNTL11[0]), 0, 0 },
	{ "mmRDPCSTX2_RDPCSTX_PHY_CNTL12", REG_MMIO, 0x2afc, 2, &mmRDPCSTX2_RDPCSTX_PHY_CNTL12[0], sizeof(mmRDPCSTX2_RDPCSTX_PHY_CNTL12)/sizeof(mmRDPCSTX2_RDPCSTX_PHY_CNTL12[0]), 0, 0 },
	{ "mmRDPCSTX2_RDPCSTX_PHY_CNTL13", REG_MMIO, 0x2afd, 2, &mmRDPCSTX2_RDPCSTX_PHY_CNTL13[0], sizeof(mmRDPCSTX2_RDPCSTX_PHY_CNTL13)/sizeof(mmRDPCSTX2_RDPCSTX_PHY_CNTL13[0]), 0, 0 },
	{ "mmRDPCSTX2_RDPCSTX_PHY_CNTL14", REG_MMIO, 0x2afe, 2, &mmRDPCSTX2_RDPCSTX_PHY_CNTL14[0], sizeof(mmRDPCSTX2_RDPCSTX_PHY_CNTL14)/sizeof(mmRDPCSTX2_RDPCSTX_PHY_CNTL14[0]), 0, 0 },
	{ "mmRDPCSTX2_RDPCSTX_PHY_FUSE0", REG_MMIO, 0x2aff, 2, &mmRDPCSTX2_RDPCSTX_PHY_FUSE0[0], sizeof(mmRDPCSTX2_RDPCSTX_PHY_FUSE0)/sizeof(mmRDPCSTX2_RDPCSTX_PHY_FUSE0[0]), 0, 0 },
	{ "mmRDPCSTX2_RDPCSTX_PHY_FUSE1", REG_MMIO, 0x2b00, 2, &mmRDPCSTX2_RDPCSTX_PHY_FUSE1[0], sizeof(mmRDPCSTX2_RDPCSTX_PHY_FUSE1)/sizeof(mmRDPCSTX2_RDPCSTX_PHY_FUSE1[0]), 0, 0 },
	{ "mmRDPCSTX2_RDPCSTX_PHY_FUSE2", REG_MMIO, 0x2b01, 2, &mmRDPCSTX2_RDPCSTX_PHY_FUSE2[0], sizeof(mmRDPCSTX2_RDPCSTX_PHY_FUSE2)/sizeof(mmRDPCSTX2_RDPCSTX_PHY_FUSE2[0]), 0, 0 },
	{ "mmRDPCSTX2_RDPCSTX_PHY_FUSE3", REG_MMIO, 0x2b02, 2, &mmRDPCSTX2_RDPCSTX_PHY_FUSE3[0], sizeof(mmRDPCSTX2_RDPCSTX_PHY_FUSE3)/sizeof(mmRDPCSTX2_RDPCSTX_PHY_FUSE3[0]), 0, 0 },
	{ "mmRDPCSTX2_RDPCSTX_PHY_RX_LD_VAL", REG_MMIO, 0x2b03, 2, &mmRDPCSTX2_RDPCSTX_PHY_RX_LD_VAL[0], sizeof(mmRDPCSTX2_RDPCSTX_PHY_RX_LD_VAL)/sizeof(mmRDPCSTX2_RDPCSTX_PHY_RX_LD_VAL[0]), 0, 0 },
	{ "mmRDPCSTX2_RDPCSTX_DMCU_DPALT_PHY_CNTL3", REG_MMIO, 0x2b04, 2, &mmRDPCSTX2_RDPCSTX_DMCU_DPALT_PHY_CNTL3[0], sizeof(mmRDPCSTX2_RDPCSTX_DMCU_DPALT_PHY_CNTL3)/sizeof(mmRDPCSTX2_RDPCSTX_DMCU_DPALT_PHY_CNTL3[0]), 0, 0 },
	{ "mmRDPCSTX2_RDPCSTX_DMCU_DPALT_PHY_CNTL6", REG_MMIO, 0x2b05, 2, &mmRDPCSTX2_RDPCSTX_DMCU_DPALT_PHY_CNTL6[0], sizeof(mmRDPCSTX2_RDPCSTX_DMCU_DPALT_PHY_CNTL6)/sizeof(mmRDPCSTX2_RDPCSTX_DMCU_DPALT_PHY_CNTL6[0]), 0, 0 },
	{ "mmRDPCSTX2_RDPCSTX_DPALT_CONTROL_REG", REG_MMIO, 0x2b06, 2, &mmRDPCSTX2_RDPCSTX_DPALT_CONTROL_REG[0], sizeof(mmRDPCSTX2_RDPCSTX_DPALT_CONTROL_REG)/sizeof(mmRDPCSTX2_RDPCSTX_DPALT_CONTROL_REG[0]), 0, 0 },
	{ "mmRDPCSTX2_RDPCSTX_PHY_CNTL15", REG_MMIO, 0x2b08, 2, &mmRDPCSTX2_RDPCSTX_PHY_CNTL15[0], sizeof(mmRDPCSTX2_RDPCSTX_PHY_CNTL15)/sizeof(mmRDPCSTX2_RDPCSTX_PHY_CNTL15[0]), 0, 0 },
	{ "mmRDPCSTX2_RDPCSTX_PHY_CNTL16", REG_MMIO, 0x2b09, 2, &mmRDPCSTX2_RDPCSTX_PHY_CNTL16[0], sizeof(mmRDPCSTX2_RDPCSTX_PHY_CNTL16)/sizeof(mmRDPCSTX2_RDPCSTX_PHY_CNTL16[0]), 0, 0 },
	{ "mmRDPCSTX2_RDPCSTX_PHY_CNTL17", REG_MMIO, 0x2b0a, 2, &mmRDPCSTX2_RDPCSTX_PHY_CNTL17[0], sizeof(mmRDPCSTX2_RDPCSTX_PHY_CNTL17)/sizeof(mmRDPCSTX2_RDPCSTX_PHY_CNTL17[0]), 0, 0 },
	{ "mmRDPCSTX2_RDPCSTX_DEBUG_CONFIG2", REG_MMIO, 0x2b0b, 2, &mmRDPCSTX2_RDPCSTX_DEBUG_CONFIG2[0], sizeof(mmRDPCSTX2_RDPCSTX_DEBUG_CONFIG2)/sizeof(mmRDPCSTX2_RDPCSTX_DEBUG_CONFIG2[0]), 0, 0 },
	{ "mmDPCSSYS_CR2_DPCSSYS_CR_ADDR", REG_MMIO, 0x2ae4, 2, &mmDPCSSYS_CR2_DPCSSYS_CR_ADDR[0], sizeof(mmDPCSSYS_CR2_DPCSSYS_CR_ADDR)/sizeof(mmDPCSSYS_CR2_DPCSSYS_CR_ADDR[0]), 0, 0 },
	{ "mmDPCSSYS_CR2_DPCSSYS_CR_DATA", REG_MMIO, 0x2ae5, 2, &mmDPCSSYS_CR2_DPCSSYS_CR_DATA[0], sizeof(mmDPCSSYS_CR2_DPCSSYS_CR_DATA)/sizeof(mmDPCSSYS_CR2_DPCSSYS_CR_DATA[0]), 0, 0 },
	{ "mmDPCSTX3_DPCSTX_TX_CLOCK_CNTL", REG_MMIO, 0x2bb0, 2, &mmDPCSTX3_DPCSTX_TX_CLOCK_CNTL[0], sizeof(mmDPCSTX3_DPCSTX_TX_CLOCK_CNTL)/sizeof(mmDPCSTX3_DPCSTX_TX_CLOCK_CNTL[0]), 0, 0 },
	{ "mmDPCSTX3_DPCSTX_TX_CNTL", REG_MMIO, 0x2bb1, 2, &mmDPCSTX3_DPCSTX_TX_CNTL[0], sizeof(mmDPCSTX3_DPCSTX_TX_CNTL)/sizeof(mmDPCSTX3_DPCSTX_TX_CNTL[0]), 0, 0 },
	{ "mmDPCSTX3_DPCSTX_CBUS_CNTL", REG_MMIO, 0x2bb2, 2, &mmDPCSTX3_DPCSTX_CBUS_CNTL[0], sizeof(mmDPCSTX3_DPCSTX_CBUS_CNTL)/sizeof(mmDPCSTX3_DPCSTX_CBUS_CNTL[0]), 0, 0 },
	{ "mmDPCSTX3_DPCSTX_INTERRUPT_CNTL", REG_MMIO, 0x2bb3, 2, &mmDPCSTX3_DPCSTX_INTERRUPT_CNTL[0], sizeof(mmDPCSTX3_DPCSTX_INTERRUPT_CNTL)/sizeof(mmDPCSTX3_DPCSTX_INTERRUPT_CNTL[0]), 0, 0 },
	{ "mmDPCSTX3_DPCSTX_PLL_UPDATE_ADDR", REG_MMIO, 0x2bb4, 2, &mmDPCSTX3_DPCSTX_PLL_UPDATE_ADDR[0], sizeof(mmDPCSTX3_DPCSTX_PLL_UPDATE_ADDR)/sizeof(mmDPCSTX3_DPCSTX_PLL_UPDATE_ADDR[0]), 0, 0 },
	{ "mmDPCSTX3_DPCSTX_PLL_UPDATE_DATA", REG_MMIO, 0x2bb5, 2, &mmDPCSTX3_DPCSTX_PLL_UPDATE_DATA[0], sizeof(mmDPCSTX3_DPCSTX_PLL_UPDATE_DATA)/sizeof(mmDPCSTX3_DPCSTX_PLL_UPDATE_DATA[0]), 0, 0 },
	{ "mmDPCSTX3_DPCSTX_DEBUG_CONFIG", REG_MMIO, 0x2bb6, 2, &mmDPCSTX3_DPCSTX_DEBUG_CONFIG[0], sizeof(mmDPCSTX3_DPCSTX_DEBUG_CONFIG)/sizeof(mmDPCSTX3_DPCSTX_DEBUG_CONFIG[0]), 0, 0 },
	{ "mmRDPCSTX3_RDPCSTX_CNTL", REG_MMIO, 0x2bb8, 2, &mmRDPCSTX3_RDPCSTX_CNTL[0], sizeof(mmRDPCSTX3_RDPCSTX_CNTL)/sizeof(mmRDPCSTX3_RDPCSTX_CNTL[0]), 0, 0 },
	{ "mmRDPCSTX3_RDPCSTX_CLOCK_CNTL", REG_MMIO, 0x2bb9, 2, &mmRDPCSTX3_RDPCSTX_CLOCK_CNTL[0], sizeof(mmRDPCSTX3_RDPCSTX_CLOCK_CNTL)/sizeof(mmRDPCSTX3_RDPCSTX_CLOCK_CNTL[0]), 0, 0 },
	{ "mmRDPCSTX3_RDPCSTX_INTERRUPT_CONTROL", REG_MMIO, 0x2bba, 2, &mmRDPCSTX3_RDPCSTX_INTERRUPT_CONTROL[0], sizeof(mmRDPCSTX3_RDPCSTX_INTERRUPT_CONTROL)/sizeof(mmRDPCSTX3_RDPCSTX_INTERRUPT_CONTROL[0]), 0, 0 },
	{ "mmRDPCSTX3_RDPCSTX_PLL_UPDATE_DATA", REG_MMIO, 0x2bbb, 2, &mmRDPCSTX3_RDPCSTX_PLL_UPDATE_DATA[0], sizeof(mmRDPCSTX3_RDPCSTX_PLL_UPDATE_DATA)/sizeof(mmRDPCSTX3_RDPCSTX_PLL_UPDATE_DATA[0]), 0, 0 },
	{ "mmRDPCSTX3_RDPCS_TX_CR_ADDR", REG_MMIO, 0x2bbc, 2, &mmRDPCSTX3_RDPCS_TX_CR_ADDR[0], sizeof(mmRDPCSTX3_RDPCS_TX_CR_ADDR)/sizeof(mmRDPCSTX3_RDPCS_TX_CR_ADDR[0]), 0, 0 },
	{ "mmRDPCSTX3_RDPCS_TX_CR_DATA", REG_MMIO, 0x2bbd, 2, &mmRDPCSTX3_RDPCS_TX_CR_DATA[0], sizeof(mmRDPCSTX3_RDPCS_TX_CR_DATA)/sizeof(mmRDPCSTX3_RDPCS_TX_CR_DATA[0]), 0, 0 },
	{ "mmRDPCSTX3_RDPCS_TX_SRAM_CNTL", REG_MMIO, 0x2bbe, 2, &mmRDPCSTX3_RDPCS_TX_SRAM_CNTL[0], sizeof(mmRDPCSTX3_RDPCS_TX_SRAM_CNTL)/sizeof(mmRDPCSTX3_RDPCS_TX_SRAM_CNTL[0]), 0, 0 },
	{ "mmRDPCSTX3_RDPCSTX_SCRATCH", REG_MMIO, 0x2bbf, 2, &mmRDPCSTX3_RDPCSTX_SCRATCH[0], sizeof(mmRDPCSTX3_RDPCSTX_SCRATCH)/sizeof(mmRDPCSTX3_RDPCSTX_SCRATCH[0]), 0, 0 },
	{ "mmRDPCSTX3_RDPCSTX_SPARE", REG_MMIO, 0x2bc0, 2, &mmRDPCSTX3_RDPCSTX_SPARE[0], sizeof(mmRDPCSTX3_RDPCSTX_SPARE)/sizeof(mmRDPCSTX3_RDPCSTX_SPARE[0]), 0, 0 },
	{ "mmRDPCSTX3_RDPCSTX_CNTL2", REG_MMIO, 0x2bc1, 2, &mmRDPCSTX3_RDPCSTX_CNTL2[0], sizeof(mmRDPCSTX3_RDPCSTX_CNTL2)/sizeof(mmRDPCSTX3_RDPCSTX_CNTL2[0]), 0, 0 },
	{ "mmRDPCSTX3_RDPCSTX_DMCU_DPALT_DIS_BLOCK_REG", REG_MMIO, 0x2bc4, 2, &mmRDPCSTX3_RDPCSTX_DMCU_DPALT_DIS_BLOCK_REG[0], sizeof(mmRDPCSTX3_RDPCSTX_DMCU_DPALT_DIS_BLOCK_REG)/sizeof(mmRDPCSTX3_RDPCSTX_DMCU_DPALT_DIS_BLOCK_REG[0]), 0, 0 },
	{ "mmRDPCSTX3_RDPCSTX_DEBUG_CONFIG", REG_MMIO, 0x2bc5, 2, &mmRDPCSTX3_RDPCSTX_DEBUG_CONFIG[0], sizeof(mmRDPCSTX3_RDPCSTX_DEBUG_CONFIG)/sizeof(mmRDPCSTX3_RDPCSTX_DEBUG_CONFIG[0]), 0, 0 },
	{ "mmRDPCSTX3_RDPCSTX_PHY_CNTL0", REG_MMIO, 0x2bc8, 2, &mmRDPCSTX3_RDPCSTX_PHY_CNTL0[0], sizeof(mmRDPCSTX3_RDPCSTX_PHY_CNTL0)/sizeof(mmRDPCSTX3_RDPCSTX_PHY_CNTL0[0]), 0, 0 },
	{ "mmRDPCSTX3_RDPCSTX_PHY_CNTL1", REG_MMIO, 0x2bc9, 2, &mmRDPCSTX3_RDPCSTX_PHY_CNTL1[0], sizeof(mmRDPCSTX3_RDPCSTX_PHY_CNTL1)/sizeof(mmRDPCSTX3_RDPCSTX_PHY_CNTL1[0]), 0, 0 },
	{ "mmRDPCSTX3_RDPCSTX_PHY_CNTL2", REG_MMIO, 0x2bca, 2, &mmRDPCSTX3_RDPCSTX_PHY_CNTL2[0], sizeof(mmRDPCSTX3_RDPCSTX_PHY_CNTL2)/sizeof(mmRDPCSTX3_RDPCSTX_PHY_CNTL2[0]), 0, 0 },
	{ "mmRDPCSTX3_RDPCSTX_PHY_CNTL3", REG_MMIO, 0x2bcb, 2, &mmRDPCSTX3_RDPCSTX_PHY_CNTL3[0], sizeof(mmRDPCSTX3_RDPCSTX_PHY_CNTL3)/sizeof(mmRDPCSTX3_RDPCSTX_PHY_CNTL3[0]), 0, 0 },
	{ "mmRDPCSTX3_RDPCSTX_PHY_CNTL4", REG_MMIO, 0x2bcc, 2, &mmRDPCSTX3_RDPCSTX_PHY_CNTL4[0], sizeof(mmRDPCSTX3_RDPCSTX_PHY_CNTL4)/sizeof(mmRDPCSTX3_RDPCSTX_PHY_CNTL4[0]), 0, 0 },
	{ "mmRDPCSTX3_RDPCSTX_PHY_CNTL5", REG_MMIO, 0x2bcd, 2, &mmRDPCSTX3_RDPCSTX_PHY_CNTL5[0], sizeof(mmRDPCSTX3_RDPCSTX_PHY_CNTL5)/sizeof(mmRDPCSTX3_RDPCSTX_PHY_CNTL5[0]), 0, 0 },
	{ "mmRDPCSTX3_RDPCSTX_PHY_CNTL6", REG_MMIO, 0x2bce, 2, &mmRDPCSTX3_RDPCSTX_PHY_CNTL6[0], sizeof(mmRDPCSTX3_RDPCSTX_PHY_CNTL6)/sizeof(mmRDPCSTX3_RDPCSTX_PHY_CNTL6[0]), 0, 0 },
	{ "mmRDPCSTX3_RDPCSTX_PHY_CNTL7", REG_MMIO, 0x2bcf, 2, &mmRDPCSTX3_RDPCSTX_PHY_CNTL7[0], sizeof(mmRDPCSTX3_RDPCSTX_PHY_CNTL7)/sizeof(mmRDPCSTX3_RDPCSTX_PHY_CNTL7[0]), 0, 0 },
	{ "mmRDPCSTX3_RDPCSTX_PHY_CNTL8", REG_MMIO, 0x2bd0, 2, &mmRDPCSTX3_RDPCSTX_PHY_CNTL8[0], sizeof(mmRDPCSTX3_RDPCSTX_PHY_CNTL8)/sizeof(mmRDPCSTX3_RDPCSTX_PHY_CNTL8[0]), 0, 0 },
	{ "mmRDPCSTX3_RDPCSTX_PHY_CNTL9", REG_MMIO, 0x2bd1, 2, &mmRDPCSTX3_RDPCSTX_PHY_CNTL9[0], sizeof(mmRDPCSTX3_RDPCSTX_PHY_CNTL9)/sizeof(mmRDPCSTX3_RDPCSTX_PHY_CNTL9[0]), 0, 0 },
	{ "mmRDPCSTX3_RDPCSTX_PHY_CNTL10", REG_MMIO, 0x2bd2, 2, &mmRDPCSTX3_RDPCSTX_PHY_CNTL10[0], sizeof(mmRDPCSTX3_RDPCSTX_PHY_CNTL10)/sizeof(mmRDPCSTX3_RDPCSTX_PHY_CNTL10[0]), 0, 0 },
	{ "mmRDPCSTX3_RDPCSTX_PHY_CNTL11", REG_MMIO, 0x2bd3, 2, &mmRDPCSTX3_RDPCSTX_PHY_CNTL11[0], sizeof(mmRDPCSTX3_RDPCSTX_PHY_CNTL11)/sizeof(mmRDPCSTX3_RDPCSTX_PHY_CNTL11[0]), 0, 0 },
	{ "mmRDPCSTX3_RDPCSTX_PHY_CNTL12", REG_MMIO, 0x2bd4, 2, &mmRDPCSTX3_RDPCSTX_PHY_CNTL12[0], sizeof(mmRDPCSTX3_RDPCSTX_PHY_CNTL12)/sizeof(mmRDPCSTX3_RDPCSTX_PHY_CNTL12[0]), 0, 0 },
	{ "mmRDPCSTX3_RDPCSTX_PHY_CNTL13", REG_MMIO, 0x2bd5, 2, &mmRDPCSTX3_RDPCSTX_PHY_CNTL13[0], sizeof(mmRDPCSTX3_RDPCSTX_PHY_CNTL13)/sizeof(mmRDPCSTX3_RDPCSTX_PHY_CNTL13[0]), 0, 0 },
	{ "mmRDPCSTX3_RDPCSTX_PHY_CNTL14", REG_MMIO, 0x2bd6, 2, &mmRDPCSTX3_RDPCSTX_PHY_CNTL14[0], sizeof(mmRDPCSTX3_RDPCSTX_PHY_CNTL14)/sizeof(mmRDPCSTX3_RDPCSTX_PHY_CNTL14[0]), 0, 0 },
	{ "mmRDPCSTX3_RDPCSTX_PHY_FUSE0", REG_MMIO, 0x2bd7, 2, &mmRDPCSTX3_RDPCSTX_PHY_FUSE0[0], sizeof(mmRDPCSTX3_RDPCSTX_PHY_FUSE0)/sizeof(mmRDPCSTX3_RDPCSTX_PHY_FUSE0[0]), 0, 0 },
	{ "mmRDPCSTX3_RDPCSTX_PHY_FUSE1", REG_MMIO, 0x2bd8, 2, &mmRDPCSTX3_RDPCSTX_PHY_FUSE1[0], sizeof(mmRDPCSTX3_RDPCSTX_PHY_FUSE1)/sizeof(mmRDPCSTX3_RDPCSTX_PHY_FUSE1[0]), 0, 0 },
	{ "mmRDPCSTX3_RDPCSTX_PHY_FUSE2", REG_MMIO, 0x2bd9, 2, &mmRDPCSTX3_RDPCSTX_PHY_FUSE2[0], sizeof(mmRDPCSTX3_RDPCSTX_PHY_FUSE2)/sizeof(mmRDPCSTX3_RDPCSTX_PHY_FUSE2[0]), 0, 0 },
	{ "mmRDPCSTX3_RDPCSTX_PHY_FUSE3", REG_MMIO, 0x2bda, 2, &mmRDPCSTX3_RDPCSTX_PHY_FUSE3[0], sizeof(mmRDPCSTX3_RDPCSTX_PHY_FUSE3)/sizeof(mmRDPCSTX3_RDPCSTX_PHY_FUSE3[0]), 0, 0 },
	{ "mmRDPCSTX3_RDPCSTX_PHY_RX_LD_VAL", REG_MMIO, 0x2bdb, 2, &mmRDPCSTX3_RDPCSTX_PHY_RX_LD_VAL[0], sizeof(mmRDPCSTX3_RDPCSTX_PHY_RX_LD_VAL)/sizeof(mmRDPCSTX3_RDPCSTX_PHY_RX_LD_VAL[0]), 0, 0 },
	{ "mmRDPCSTX3_RDPCSTX_DMCU_DPALT_PHY_CNTL3", REG_MMIO, 0x2bdc, 2, &mmRDPCSTX3_RDPCSTX_DMCU_DPALT_PHY_CNTL3[0], sizeof(mmRDPCSTX3_RDPCSTX_DMCU_DPALT_PHY_CNTL3)/sizeof(mmRDPCSTX3_RDPCSTX_DMCU_DPALT_PHY_CNTL3[0]), 0, 0 },
	{ "mmRDPCSTX3_RDPCSTX_DMCU_DPALT_PHY_CNTL6", REG_MMIO, 0x2bdd, 2, &mmRDPCSTX3_RDPCSTX_DMCU_DPALT_PHY_CNTL6[0], sizeof(mmRDPCSTX3_RDPCSTX_DMCU_DPALT_PHY_CNTL6)/sizeof(mmRDPCSTX3_RDPCSTX_DMCU_DPALT_PHY_CNTL6[0]), 0, 0 },
	{ "mmRDPCSTX3_RDPCSTX_DPALT_CONTROL_REG", REG_MMIO, 0x2bde, 2, &mmRDPCSTX3_RDPCSTX_DPALT_CONTROL_REG[0], sizeof(mmRDPCSTX3_RDPCSTX_DPALT_CONTROL_REG)/sizeof(mmRDPCSTX3_RDPCSTX_DPALT_CONTROL_REG[0]), 0, 0 },
	{ "mmRDPCSTX3_RDPCSTX_PHY_CNTL15", REG_MMIO, 0x2be0, 2, &mmRDPCSTX3_RDPCSTX_PHY_CNTL15[0], sizeof(mmRDPCSTX3_RDPCSTX_PHY_CNTL15)/sizeof(mmRDPCSTX3_RDPCSTX_PHY_CNTL15[0]), 0, 0 },
	{ "mmRDPCSTX3_RDPCSTX_PHY_CNTL16", REG_MMIO, 0x2be1, 2, &mmRDPCSTX3_RDPCSTX_PHY_CNTL16[0], sizeof(mmRDPCSTX3_RDPCSTX_PHY_CNTL16)/sizeof(mmRDPCSTX3_RDPCSTX_PHY_CNTL16[0]), 0, 0 },
	{ "mmRDPCSTX3_RDPCSTX_PHY_CNTL17", REG_MMIO, 0x2be2, 2, &mmRDPCSTX3_RDPCSTX_PHY_CNTL17[0], sizeof(mmRDPCSTX3_RDPCSTX_PHY_CNTL17)/sizeof(mmRDPCSTX3_RDPCSTX_PHY_CNTL17[0]), 0, 0 },
	{ "mmRDPCSTX3_RDPCSTX_DEBUG_CONFIG2", REG_MMIO, 0x2be3, 2, &mmRDPCSTX3_RDPCSTX_DEBUG_CONFIG2[0], sizeof(mmRDPCSTX3_RDPCSTX_DEBUG_CONFIG2)/sizeof(mmRDPCSTX3_RDPCSTX_DEBUG_CONFIG2[0]), 0, 0 },
	{ "mmDPCSSYS_CR3_DPCSSYS_CR_ADDR", REG_MMIO, 0x2bbc, 2, &mmDPCSSYS_CR3_DPCSSYS_CR_ADDR[0], sizeof(mmDPCSSYS_CR3_DPCSSYS_CR_ADDR)/sizeof(mmDPCSSYS_CR3_DPCSSYS_CR_ADDR[0]), 0, 0 },
	{ "mmDPCSSYS_CR3_DPCSSYS_CR_DATA", REG_MMIO, 0x2bbd, 2, &mmDPCSSYS_CR3_DPCSSYS_CR_DATA[0], sizeof(mmDPCSSYS_CR3_DPCSSYS_CR_DATA)/sizeof(mmDPCSSYS_CR3_DPCSSYS_CR_DATA[0]), 0, 0 },
	{ "mmDPCSTX4_DPCSTX_TX_CLOCK_CNTL", REG_MMIO, 0x2c88, 2, &mmDPCSTX4_DPCSTX_TX_CLOCK_CNTL[0], sizeof(mmDPCSTX4_DPCSTX_TX_CLOCK_CNTL)/sizeof(mmDPCSTX4_DPCSTX_TX_CLOCK_CNTL[0]), 0, 0 },
	{ "mmDPCSTX4_DPCSTX_TX_CNTL", REG_MMIO, 0x2c89, 2, &mmDPCSTX4_DPCSTX_TX_CNTL[0], sizeof(mmDPCSTX4_DPCSTX_TX_CNTL)/sizeof(mmDPCSTX4_DPCSTX_TX_CNTL[0]), 0, 0 },
	{ "mmDPCSTX4_DPCSTX_CBUS_CNTL", REG_MMIO, 0x2c8a, 2, &mmDPCSTX4_DPCSTX_CBUS_CNTL[0], sizeof(mmDPCSTX4_DPCSTX_CBUS_CNTL)/sizeof(mmDPCSTX4_DPCSTX_CBUS_CNTL[0]), 0, 0 },
	{ "mmDPCSTX4_DPCSTX_INTERRUPT_CNTL", REG_MMIO, 0x2c8b, 2, &mmDPCSTX4_DPCSTX_INTERRUPT_CNTL[0], sizeof(mmDPCSTX4_DPCSTX_INTERRUPT_CNTL)/sizeof(mmDPCSTX4_DPCSTX_INTERRUPT_CNTL[0]), 0, 0 },
	{ "mmDPCSTX4_DPCSTX_PLL_UPDATE_ADDR", REG_MMIO, 0x2c8c, 2, &mmDPCSTX4_DPCSTX_PLL_UPDATE_ADDR[0], sizeof(mmDPCSTX4_DPCSTX_PLL_UPDATE_ADDR)/sizeof(mmDPCSTX4_DPCSTX_PLL_UPDATE_ADDR[0]), 0, 0 },
	{ "mmDPCSTX4_DPCSTX_PLL_UPDATE_DATA", REG_MMIO, 0x2c8d, 2, &mmDPCSTX4_DPCSTX_PLL_UPDATE_DATA[0], sizeof(mmDPCSTX4_DPCSTX_PLL_UPDATE_DATA)/sizeof(mmDPCSTX4_DPCSTX_PLL_UPDATE_DATA[0]), 0, 0 },
	{ "mmDPCSTX4_DPCSTX_DEBUG_CONFIG", REG_MMIO, 0x2c8e, 2, &mmDPCSTX4_DPCSTX_DEBUG_CONFIG[0], sizeof(mmDPCSTX4_DPCSTX_DEBUG_CONFIG)/sizeof(mmDPCSTX4_DPCSTX_DEBUG_CONFIG[0]), 0, 0 },
	{ "mmRDPCSTX4_RDPCSTX_CNTL", REG_MMIO, 0x2c90, 2, &mmRDPCSTX4_RDPCSTX_CNTL[0], sizeof(mmRDPCSTX4_RDPCSTX_CNTL)/sizeof(mmRDPCSTX4_RDPCSTX_CNTL[0]), 0, 0 },
	{ "mmRDPCSTX4_RDPCSTX_CLOCK_CNTL", REG_MMIO, 0x2c91, 2, &mmRDPCSTX4_RDPCSTX_CLOCK_CNTL[0], sizeof(mmRDPCSTX4_RDPCSTX_CLOCK_CNTL)/sizeof(mmRDPCSTX4_RDPCSTX_CLOCK_CNTL[0]), 0, 0 },
	{ "mmRDPCSTX4_RDPCSTX_INTERRUPT_CONTROL", REG_MMIO, 0x2c92, 2, &mmRDPCSTX4_RDPCSTX_INTERRUPT_CONTROL[0], sizeof(mmRDPCSTX4_RDPCSTX_INTERRUPT_CONTROL)/sizeof(mmRDPCSTX4_RDPCSTX_INTERRUPT_CONTROL[0]), 0, 0 },
	{ "mmRDPCSTX4_RDPCSTX_PLL_UPDATE_DATA", REG_MMIO, 0x2c93, 2, &mmRDPCSTX4_RDPCSTX_PLL_UPDATE_DATA[0], sizeof(mmRDPCSTX4_RDPCSTX_PLL_UPDATE_DATA)/sizeof(mmRDPCSTX4_RDPCSTX_PLL_UPDATE_DATA[0]), 0, 0 },
	{ "mmRDPCSTX4_RDPCS_TX_CR_ADDR", REG_MMIO, 0x2c94, 2, &mmRDPCSTX4_RDPCS_TX_CR_ADDR[0], sizeof(mmRDPCSTX4_RDPCS_TX_CR_ADDR)/sizeof(mmRDPCSTX4_RDPCS_TX_CR_ADDR[0]), 0, 0 },
	{ "mmRDPCSTX4_RDPCS_TX_CR_DATA", REG_MMIO, 0x2c95, 2, &mmRDPCSTX4_RDPCS_TX_CR_DATA[0], sizeof(mmRDPCSTX4_RDPCS_TX_CR_DATA)/sizeof(mmRDPCSTX4_RDPCS_TX_CR_DATA[0]), 0, 0 },
	{ "mmRDPCSTX4_RDPCS_TX_SRAM_CNTL", REG_MMIO, 0x2c96, 2, &mmRDPCSTX4_RDPCS_TX_SRAM_CNTL[0], sizeof(mmRDPCSTX4_RDPCS_TX_SRAM_CNTL)/sizeof(mmRDPCSTX4_RDPCS_TX_SRAM_CNTL[0]), 0, 0 },
	{ "mmRDPCSTX4_RDPCSTX_SCRATCH", REG_MMIO, 0x2c97, 2, &mmRDPCSTX4_RDPCSTX_SCRATCH[0], sizeof(mmRDPCSTX4_RDPCSTX_SCRATCH)/sizeof(mmRDPCSTX4_RDPCSTX_SCRATCH[0]), 0, 0 },
	{ "mmRDPCSTX4_RDPCSTX_SPARE", REG_MMIO, 0x2c98, 2, &mmRDPCSTX4_RDPCSTX_SPARE[0], sizeof(mmRDPCSTX4_RDPCSTX_SPARE)/sizeof(mmRDPCSTX4_RDPCSTX_SPARE[0]), 0, 0 },
	{ "mmRDPCSTX4_RDPCSTX_CNTL2", REG_MMIO, 0x2c99, 2, &mmRDPCSTX4_RDPCSTX_CNTL2[0], sizeof(mmRDPCSTX4_RDPCSTX_CNTL2)/sizeof(mmRDPCSTX4_RDPCSTX_CNTL2[0]), 0, 0 },
	{ "mmRDPCSTX4_RDPCSTX_DMCU_DPALT_DIS_BLOCK_REG", REG_MMIO, 0x2c9c, 2, &mmRDPCSTX4_RDPCSTX_DMCU_DPALT_DIS_BLOCK_REG[0], sizeof(mmRDPCSTX4_RDPCSTX_DMCU_DPALT_DIS_BLOCK_REG)/sizeof(mmRDPCSTX4_RDPCSTX_DMCU_DPALT_DIS_BLOCK_REG[0]), 0, 0 },
	{ "mmRDPCSTX4_RDPCSTX_DEBUG_CONFIG", REG_MMIO, 0x2c9d, 2, &mmRDPCSTX4_RDPCSTX_DEBUG_CONFIG[0], sizeof(mmRDPCSTX4_RDPCSTX_DEBUG_CONFIG)/sizeof(mmRDPCSTX4_RDPCSTX_DEBUG_CONFIG[0]), 0, 0 },
	{ "mmRDPCSTX4_RDPCSTX_PHY_CNTL0", REG_MMIO, 0x2ca0, 2, &mmRDPCSTX4_RDPCSTX_PHY_CNTL0[0], sizeof(mmRDPCSTX4_RDPCSTX_PHY_CNTL0)/sizeof(mmRDPCSTX4_RDPCSTX_PHY_CNTL0[0]), 0, 0 },
	{ "mmRDPCSTX4_RDPCSTX_PHY_CNTL1", REG_MMIO, 0x2ca1, 2, &mmRDPCSTX4_RDPCSTX_PHY_CNTL1[0], sizeof(mmRDPCSTX4_RDPCSTX_PHY_CNTL1)/sizeof(mmRDPCSTX4_RDPCSTX_PHY_CNTL1[0]), 0, 0 },
	{ "mmRDPCSTX4_RDPCSTX_PHY_CNTL2", REG_MMIO, 0x2ca2, 2, &mmRDPCSTX4_RDPCSTX_PHY_CNTL2[0], sizeof(mmRDPCSTX4_RDPCSTX_PHY_CNTL2)/sizeof(mmRDPCSTX4_RDPCSTX_PHY_CNTL2[0]), 0, 0 },
	{ "mmRDPCSTX4_RDPCSTX_PHY_CNTL3", REG_MMIO, 0x2ca3, 2, &mmRDPCSTX4_RDPCSTX_PHY_CNTL3[0], sizeof(mmRDPCSTX4_RDPCSTX_PHY_CNTL3)/sizeof(mmRDPCSTX4_RDPCSTX_PHY_CNTL3[0]), 0, 0 },
	{ "mmRDPCSTX4_RDPCSTX_PHY_CNTL4", REG_MMIO, 0x2ca4, 2, &mmRDPCSTX4_RDPCSTX_PHY_CNTL4[0], sizeof(mmRDPCSTX4_RDPCSTX_PHY_CNTL4)/sizeof(mmRDPCSTX4_RDPCSTX_PHY_CNTL4[0]), 0, 0 },
	{ "mmRDPCSTX4_RDPCSTX_PHY_CNTL5", REG_MMIO, 0x2ca5, 2, &mmRDPCSTX4_RDPCSTX_PHY_CNTL5[0], sizeof(mmRDPCSTX4_RDPCSTX_PHY_CNTL5)/sizeof(mmRDPCSTX4_RDPCSTX_PHY_CNTL5[0]), 0, 0 },
	{ "mmRDPCSTX4_RDPCSTX_PHY_CNTL6", REG_MMIO, 0x2ca6, 2, &mmRDPCSTX4_RDPCSTX_PHY_CNTL6[0], sizeof(mmRDPCSTX4_RDPCSTX_PHY_CNTL6)/sizeof(mmRDPCSTX4_RDPCSTX_PHY_CNTL6[0]), 0, 0 },
	{ "mmRDPCSTX4_RDPCSTX_PHY_CNTL7", REG_MMIO, 0x2ca7, 2, &mmRDPCSTX4_RDPCSTX_PHY_CNTL7[0], sizeof(mmRDPCSTX4_RDPCSTX_PHY_CNTL7)/sizeof(mmRDPCSTX4_RDPCSTX_PHY_CNTL7[0]), 0, 0 },
	{ "mmRDPCSTX4_RDPCSTX_PHY_CNTL8", REG_MMIO, 0x2ca8, 2, &mmRDPCSTX4_RDPCSTX_PHY_CNTL8[0], sizeof(mmRDPCSTX4_RDPCSTX_PHY_CNTL8)/sizeof(mmRDPCSTX4_RDPCSTX_PHY_CNTL8[0]), 0, 0 },
	{ "mmRDPCSTX4_RDPCSTX_PHY_CNTL9", REG_MMIO, 0x2ca9, 2, &mmRDPCSTX4_RDPCSTX_PHY_CNTL9[0], sizeof(mmRDPCSTX4_RDPCSTX_PHY_CNTL9)/sizeof(mmRDPCSTX4_RDPCSTX_PHY_CNTL9[0]), 0, 0 },
	{ "mmRDPCSTX4_RDPCSTX_PHY_CNTL10", REG_MMIO, 0x2caa, 2, &mmRDPCSTX4_RDPCSTX_PHY_CNTL10[0], sizeof(mmRDPCSTX4_RDPCSTX_PHY_CNTL10)/sizeof(mmRDPCSTX4_RDPCSTX_PHY_CNTL10[0]), 0, 0 },
	{ "mmRDPCSTX4_RDPCSTX_PHY_CNTL11", REG_MMIO, 0x2cab, 2, &mmRDPCSTX4_RDPCSTX_PHY_CNTL11[0], sizeof(mmRDPCSTX4_RDPCSTX_PHY_CNTL11)/sizeof(mmRDPCSTX4_RDPCSTX_PHY_CNTL11[0]), 0, 0 },
	{ "mmRDPCSTX4_RDPCSTX_PHY_CNTL12", REG_MMIO, 0x2cac, 2, &mmRDPCSTX4_RDPCSTX_PHY_CNTL12[0], sizeof(mmRDPCSTX4_RDPCSTX_PHY_CNTL12)/sizeof(mmRDPCSTX4_RDPCSTX_PHY_CNTL12[0]), 0, 0 },
	{ "mmRDPCSTX4_RDPCSTX_PHY_CNTL13", REG_MMIO, 0x2cad, 2, &mmRDPCSTX4_RDPCSTX_PHY_CNTL13[0], sizeof(mmRDPCSTX4_RDPCSTX_PHY_CNTL13)/sizeof(mmRDPCSTX4_RDPCSTX_PHY_CNTL13[0]), 0, 0 },
	{ "mmRDPCSTX4_RDPCSTX_PHY_CNTL14", REG_MMIO, 0x2cae, 2, &mmRDPCSTX4_RDPCSTX_PHY_CNTL14[0], sizeof(mmRDPCSTX4_RDPCSTX_PHY_CNTL14)/sizeof(mmRDPCSTX4_RDPCSTX_PHY_CNTL14[0]), 0, 0 },
	{ "mmRDPCSTX4_RDPCSTX_PHY_FUSE0", REG_MMIO, 0x2caf, 2, &mmRDPCSTX4_RDPCSTX_PHY_FUSE0[0], sizeof(mmRDPCSTX4_RDPCSTX_PHY_FUSE0)/sizeof(mmRDPCSTX4_RDPCSTX_PHY_FUSE0[0]), 0, 0 },
	{ "mmRDPCSTX4_RDPCSTX_PHY_FUSE1", REG_MMIO, 0x2cb0, 2, &mmRDPCSTX4_RDPCSTX_PHY_FUSE1[0], sizeof(mmRDPCSTX4_RDPCSTX_PHY_FUSE1)/sizeof(mmRDPCSTX4_RDPCSTX_PHY_FUSE1[0]), 0, 0 },
	{ "mmRDPCSTX4_RDPCSTX_PHY_FUSE2", REG_MMIO, 0x2cb1, 2, &mmRDPCSTX4_RDPCSTX_PHY_FUSE2[0], sizeof(mmRDPCSTX4_RDPCSTX_PHY_FUSE2)/sizeof(mmRDPCSTX4_RDPCSTX_PHY_FUSE2[0]), 0, 0 },
	{ "mmRDPCSTX4_RDPCSTX_PHY_FUSE3", REG_MMIO, 0x2cb2, 2, &mmRDPCSTX4_RDPCSTX_PHY_FUSE3[0], sizeof(mmRDPCSTX4_RDPCSTX_PHY_FUSE3)/sizeof(mmRDPCSTX4_RDPCSTX_PHY_FUSE3[0]), 0, 0 },
	{ "mmRDPCSTX4_RDPCSTX_PHY_RX_LD_VAL", REG_MMIO, 0x2cb3, 2, &mmRDPCSTX4_RDPCSTX_PHY_RX_LD_VAL[0], sizeof(mmRDPCSTX4_RDPCSTX_PHY_RX_LD_VAL)/sizeof(mmRDPCSTX4_RDPCSTX_PHY_RX_LD_VAL[0]), 0, 0 },
	{ "mmRDPCSTX4_RDPCSTX_DMCU_DPALT_PHY_CNTL3", REG_MMIO, 0x2cb4, 2, &mmRDPCSTX4_RDPCSTX_DMCU_DPALT_PHY_CNTL3[0], sizeof(mmRDPCSTX4_RDPCSTX_DMCU_DPALT_PHY_CNTL3)/sizeof(mmRDPCSTX4_RDPCSTX_DMCU_DPALT_PHY_CNTL3[0]), 0, 0 },
	{ "mmRDPCSTX4_RDPCSTX_DMCU_DPALT_PHY_CNTL6", REG_MMIO, 0x2cb5, 2, &mmRDPCSTX4_RDPCSTX_DMCU_DPALT_PHY_CNTL6[0], sizeof(mmRDPCSTX4_RDPCSTX_DMCU_DPALT_PHY_CNTL6)/sizeof(mmRDPCSTX4_RDPCSTX_DMCU_DPALT_PHY_CNTL6[0]), 0, 0 },
	{ "mmRDPCSTX4_RDPCSTX_DPALT_CONTROL_REG", REG_MMIO, 0x2cb6, 2, &mmRDPCSTX4_RDPCSTX_DPALT_CONTROL_REG[0], sizeof(mmRDPCSTX4_RDPCSTX_DPALT_CONTROL_REG)/sizeof(mmRDPCSTX4_RDPCSTX_DPALT_CONTROL_REG[0]), 0, 0 },
	{ "mmRDPCSTX4_RDPCSTX_PHY_CNTL15", REG_MMIO, 0x2cb8, 2, &mmRDPCSTX4_RDPCSTX_PHY_CNTL15[0], sizeof(mmRDPCSTX4_RDPCSTX_PHY_CNTL15)/sizeof(mmRDPCSTX4_RDPCSTX_PHY_CNTL15[0]), 0, 0 },
	{ "mmRDPCSTX4_RDPCSTX_PHY_CNTL16", REG_MMIO, 0x2cb9, 2, &mmRDPCSTX4_RDPCSTX_PHY_CNTL16[0], sizeof(mmRDPCSTX4_RDPCSTX_PHY_CNTL16)/sizeof(mmRDPCSTX4_RDPCSTX_PHY_CNTL16[0]), 0, 0 },
	{ "mmRDPCSTX4_RDPCSTX_PHY_CNTL17", REG_MMIO, 0x2cba, 2, &mmRDPCSTX4_RDPCSTX_PHY_CNTL17[0], sizeof(mmRDPCSTX4_RDPCSTX_PHY_CNTL17)/sizeof(mmRDPCSTX4_RDPCSTX_PHY_CNTL17[0]), 0, 0 },
	{ "mmRDPCSTX4_RDPCSTX_DEBUG_CONFIG2", REG_MMIO, 0x2cbb, 2, &mmRDPCSTX4_RDPCSTX_DEBUG_CONFIG2[0], sizeof(mmRDPCSTX4_RDPCSTX_DEBUG_CONFIG2)/sizeof(mmRDPCSTX4_RDPCSTX_DEBUG_CONFIG2[0]), 0, 0 },
	{ "mmDPCSSYS_CR4_DPCSSYS_CR_ADDR", REG_MMIO, 0x2c94, 2, &mmDPCSSYS_CR4_DPCSSYS_CR_ADDR[0], sizeof(mmDPCSSYS_CR4_DPCSSYS_CR_ADDR)/sizeof(mmDPCSSYS_CR4_DPCSSYS_CR_ADDR[0]), 0, 0 },
	{ "mmDPCSSYS_CR4_DPCSSYS_CR_DATA", REG_MMIO, 0x2c95, 2, &mmDPCSSYS_CR4_DPCSSYS_CR_DATA[0], sizeof(mmDPCSSYS_CR4_DPCSSYS_CR_DATA)/sizeof(mmDPCSSYS_CR4_DPCSSYS_CR_DATA[0]), 0, 0 },
