	{ "mmSMUSVI0_TEL_PLANE0", REG_MMIO, 0x0004, 0, &mmSMUSVI0_TEL_PLANE0[0], sizeof(mmSMUSVI0_TEL_PLANE0)/sizeof(mmSMUSVI0_TEL_PLANE0[0]), 0, 0 },
	{ "mmSMUIO_MCM_CONFIG", REG_MMIO, 0x0024, 0, &mmSMUIO_MCM_CONFIG[0], sizeof(mmSMUIO_MCM_CONFIG)/sizeof(mmSMUIO_MCM_CONFIG[0]), 0, 0 },
	{ "mmCKSVII2C_IC_CON", REG_MMIO, 0x0040, 0, &mmCKSVII2C_IC_CON[0], sizeof(mmCKSVII2C_IC_CON)/sizeof(mmCKSVII2C_IC_CON[0]), 0, 0 },
	{ "mmCKSVII2C_IC_TAR", REG_MMIO, 0x0041, 0, &mmCKSVII2C_IC_TAR[0], sizeof(mmCKSVII2C_IC_TAR)/sizeof(mmCKSVII2C_IC_TAR[0]), 0, 0 },
	{ "mmCKSVII2C_IC_SAR", REG_MMIO, 0x0042, 0, &mmCKSVII2C_IC_SAR[0], sizeof(mmCKSVII2C_IC_SAR)/sizeof(mmCKSVII2C_IC_SAR[0]), 0, 0 },
	{ "mmCKSVII2C_IC_HS_MADDR", REG_MMIO, 0x0043, 0, &mmCKSVII2C_IC_HS_MADDR[0], sizeof(mmCKSVII2C_IC_HS_MADDR)/sizeof(mmCKSVII2C_IC_HS_MADDR[0]), 0, 0 },
	{ "mmCKSVII2C_IC_DATA_CMD", REG_MMIO, 0x0044, 0, &mmCKSVII2C_IC_DATA_CMD[0], sizeof(mmCKSVII2C_IC_DATA_CMD)/sizeof(mmCKSVII2C_IC_DATA_CMD[0]), 0, 0 },
	{ "mmCKSVII2C_IC_SS_SCL_HCNT", REG_MMIO, 0x0045, 0, &mmCKSVII2C_IC_SS_SCL_HCNT[0], sizeof(mmCKSVII2C_IC_SS_SCL_HCNT)/sizeof(mmCKSVII2C_IC_SS_SCL_HCNT[0]), 0, 0 },
	{ "mmCKSVII2C_IC_SS_SCL_LCNT", REG_MMIO, 0x0046, 0, &mmCKSVII2C_IC_SS_SCL_LCNT[0], sizeof(mmCKSVII2C_IC_SS_SCL_LCNT)/sizeof(mmCKSVII2C_IC_SS_SCL_LCNT[0]), 0, 0 },
	{ "mmCKSVII2C_IC_FS_SCL_HCNT", REG_MMIO, 0x0047, 0, &mmCKSVII2C_IC_FS_SCL_HCNT[0], sizeof(mmCKSVII2C_IC_FS_SCL_HCNT)/sizeof(mmCKSVII2C_IC_FS_SCL_HCNT[0]), 0, 0 },
	{ "mmCKSVII2C_IC_FS_SCL_LCNT", REG_MMIO, 0x0048, 0, &mmCKSVII2C_IC_FS_SCL_LCNT[0], sizeof(mmCKSVII2C_IC_FS_SCL_LCNT)/sizeof(mmCKSVII2C_IC_FS_SCL_LCNT[0]), 0, 0 },
	{ "mmCKSVII2C_IC_HS_SCL_HCNT", REG_MMIO, 0x0049, 0, &mmCKSVII2C_IC_HS_SCL_HCNT[0], sizeof(mmCKSVII2C_IC_HS_SCL_HCNT)/sizeof(mmCKSVII2C_IC_HS_SCL_HCNT[0]), 0, 0 },
	{ "mmCKSVII2C_IC_HS_SCL_LCNT", REG_MMIO, 0x004a, 0, &mmCKSVII2C_IC_HS_SCL_LCNT[0], sizeof(mmCKSVII2C_IC_HS_SCL_LCNT)/sizeof(mmCKSVII2C_IC_HS_SCL_LCNT[0]), 0, 0 },
	{ "mmCKSVII2C_IC_INTR_STAT", REG_MMIO, 0x004b, 0, &mmCKSVII2C_IC_INTR_STAT[0], sizeof(mmCKSVII2C_IC_INTR_STAT)/sizeof(mmCKSVII2C_IC_INTR_STAT[0]), 0, 0 },
	{ "mmCKSVII2C_IC_INTR_MASK", REG_MMIO, 0x004c, 0, &mmCKSVII2C_IC_INTR_MASK[0], sizeof(mmCKSVII2C_IC_INTR_MASK)/sizeof(mmCKSVII2C_IC_INTR_MASK[0]), 0, 0 },
	{ "mmCKSVII2C_IC_RAW_INTR_STAT", REG_MMIO, 0x004d, 0, &mmCKSVII2C_IC_RAW_INTR_STAT[0], sizeof(mmCKSVII2C_IC_RAW_INTR_STAT)/sizeof(mmCKSVII2C_IC_RAW_INTR_STAT[0]), 0, 0 },
	{ "mmCKSVII2C_IC_RX_TL", REG_MMIO, 0x004e, 0, NULL, 0, 0, 0 },
	{ "mmCKSVII2C_IC_TX_TL", REG_MMIO, 0x004f, 0, NULL, 0, 0, 0 },
	{ "mmCKSVII2C_IC_CLR_INTR", REG_MMIO, 0x0050, 0, NULL, 0, 0, 0 },
	{ "mmCKSVII2C_IC_CLR_RX_UNDER", REG_MMIO, 0x0051, 0, NULL, 0, 0, 0 },
	{ "mmCKSVII2C_IC_CLR_RX_OVER", REG_MMIO, 0x0052, 0, NULL, 0, 0, 0 },
	{ "mmCKSVII2C_IC_CLR_TX_OVER", REG_MMIO, 0x0053, 0, NULL, 0, 0, 0 },
	{ "mmCKSVII2C_IC_CLR_RD_REQ", REG_MMIO, 0x0054, 0, NULL, 0, 0, 0 },
	{ "mmCKSVII2C_IC_CLR_TX_ABRT", REG_MMIO, 0x0055, 0, NULL, 0, 0, 0 },
	{ "mmCKSVII2C_IC_CLR_RX_DONE", REG_MMIO, 0x0056, 0, NULL, 0, 0, 0 },
	{ "mmCKSVII2C_IC_CLR_ACTIVITY", REG_MMIO, 0x0057, 0, &mmCKSVII2C_IC_CLR_ACTIVITY[0], sizeof(mmCKSVII2C_IC_CLR_ACTIVITY)/sizeof(mmCKSVII2C_IC_CLR_ACTIVITY[0]), 0, 0 },
	{ "mmCKSVII2C_IC_CLR_STOP_DET", REG_MMIO, 0x0058, 0, NULL, 0, 0, 0 },
	{ "mmCKSVII2C_IC_CLR_START_DET", REG_MMIO, 0x0059, 0, NULL, 0, 0, 0 },
	{ "mmCKSVII2C_IC_CLR_GEN_CALL", REG_MMIO, 0x005a, 0, NULL, 0, 0, 0 },
	{ "mmCKSVII2C_IC_ENABLE", REG_MMIO, 0x005b, 0, &mmCKSVII2C_IC_ENABLE[0], sizeof(mmCKSVII2C_IC_ENABLE)/sizeof(mmCKSVII2C_IC_ENABLE[0]), 0, 0 },
	{ "mmCKSVII2C_IC_STATUS", REG_MMIO, 0x005c, 0, &mmCKSVII2C_IC_STATUS[0], sizeof(mmCKSVII2C_IC_STATUS)/sizeof(mmCKSVII2C_IC_STATUS[0]), 0, 0 },
	{ "mmCKSVII2C_IC_TXFLR", REG_MMIO, 0x005d, 0, NULL, 0, 0, 0 },
	{ "mmCKSVII2C_IC_RXFLR", REG_MMIO, 0x005e, 0, NULL, 0, 0, 0 },
	{ "mmCKSVII2C_IC_SDA_HOLD", REG_MMIO, 0x005f, 0, &mmCKSVII2C_IC_SDA_HOLD[0], sizeof(mmCKSVII2C_IC_SDA_HOLD)/sizeof(mmCKSVII2C_IC_SDA_HOLD[0]), 0, 0 },
	{ "mmCKSVII2C_IC_TX_ABRT_SOURCE", REG_MMIO, 0x0060, 0, &mmCKSVII2C_IC_TX_ABRT_SOURCE[0], sizeof(mmCKSVII2C_IC_TX_ABRT_SOURCE)/sizeof(mmCKSVII2C_IC_TX_ABRT_SOURCE[0]), 0, 0 },
	{ "mmCKSVII2C_IC_SLV_DATA_NACK_ONLY", REG_MMIO, 0x0061, 0, NULL, 0, 0, 0 },
	{ "mmCKSVII2C_IC_DMA_CR", REG_MMIO, 0x0062, 0, NULL, 0, 0, 0 },
	{ "mmCKSVII2C_IC_DMA_TDLR", REG_MMIO, 0x0063, 0, NULL, 0, 0, 0 },
	{ "mmCKSVII2C_IC_DMA_RDLR", REG_MMIO, 0x0064, 0, NULL, 0, 0, 0 },
	{ "mmCKSVII2C_IC_SDA_SETUP", REG_MMIO, 0x0065, 0, &mmCKSVII2C_IC_SDA_SETUP[0], sizeof(mmCKSVII2C_IC_SDA_SETUP)/sizeof(mmCKSVII2C_IC_SDA_SETUP[0]), 0, 0 },
	{ "mmCKSVII2C_IC_ACK_GENERAL_CALL", REG_MMIO, 0x0066, 0, &mmCKSVII2C_IC_ACK_GENERAL_CALL[0], sizeof(mmCKSVII2C_IC_ACK_GENERAL_CALL)/sizeof(mmCKSVII2C_IC_ACK_GENERAL_CALL[0]), 0, 0 },
	{ "mmCKSVII2C_IC_ENABLE_STATUS", REG_MMIO, 0x0067, 0, &mmCKSVII2C_IC_ENABLE_STATUS[0], sizeof(mmCKSVII2C_IC_ENABLE_STATUS)/sizeof(mmCKSVII2C_IC_ENABLE_STATUS[0]), 0, 0 },
	{ "mmCKSVII2C_IC_FS_SPKLEN", REG_MMIO, 0x0068, 0, &mmCKSVII2C_IC_FS_SPKLEN[0], sizeof(mmCKSVII2C_IC_FS_SPKLEN)/sizeof(mmCKSVII2C_IC_FS_SPKLEN[0]), 0, 0 },
	{ "mmCKSVII2C_IC_HS_SPKLEN", REG_MMIO, 0x0069, 0, &mmCKSVII2C_IC_HS_SPKLEN[0], sizeof(mmCKSVII2C_IC_HS_SPKLEN)/sizeof(mmCKSVII2C_IC_HS_SPKLEN[0]), 0, 0 },
	{ "mmCKSVII2C_IC_CLR_RESTART_DET", REG_MMIO, 0x006a, 0, NULL, 0, 0, 0 },
	{ "mmCKSVII2C_IC_COMP_PARAM_1", REG_MMIO, 0x006b, 0, &mmCKSVII2C_IC_COMP_PARAM_1[0], sizeof(mmCKSVII2C_IC_COMP_PARAM_1)/sizeof(mmCKSVII2C_IC_COMP_PARAM_1[0]), 0, 0 },
	{ "mmCKSVII2C_IC_COMP_VERSION", REG_MMIO, 0x006c, 0, &mmCKSVII2C_IC_COMP_VERSION[0], sizeof(mmCKSVII2C_IC_COMP_VERSION)/sizeof(mmCKSVII2C_IC_COMP_VERSION[0]), 0, 0 },
	{ "mmCKSVII2C_IC_COMP_TYPE", REG_MMIO, 0x006d, 0, &mmCKSVII2C_IC_COMP_TYPE[0], sizeof(mmCKSVII2C_IC_COMP_TYPE)/sizeof(mmCKSVII2C_IC_COMP_TYPE[0]), 0, 0 },
	{ "mmCKSVII2C1_IC_CON", REG_MMIO, 0x0080, 0, &mmCKSVII2C1_IC_CON[0], sizeof(mmCKSVII2C1_IC_CON)/sizeof(mmCKSVII2C1_IC_CON[0]), 0, 0 },
	{ "mmCKSVII2C1_IC_TAR", REG_MMIO, 0x0081, 0, &mmCKSVII2C1_IC_TAR[0], sizeof(mmCKSVII2C1_IC_TAR)/sizeof(mmCKSVII2C1_IC_TAR[0]), 0, 0 },
	{ "mmCKSVII2C1_IC_SAR", REG_MMIO, 0x0082, 0, &mmCKSVII2C1_IC_SAR[0], sizeof(mmCKSVII2C1_IC_SAR)/sizeof(mmCKSVII2C1_IC_SAR[0]), 0, 0 },
	{ "mmCKSVII2C1_IC_HS_MADDR", REG_MMIO, 0x0083, 0, &mmCKSVII2C1_IC_HS_MADDR[0], sizeof(mmCKSVII2C1_IC_HS_MADDR)/sizeof(mmCKSVII2C1_IC_HS_MADDR[0]), 0, 0 },
	{ "mmCKSVII2C1_IC_DATA_CMD", REG_MMIO, 0x0084, 0, &mmCKSVII2C1_IC_DATA_CMD[0], sizeof(mmCKSVII2C1_IC_DATA_CMD)/sizeof(mmCKSVII2C1_IC_DATA_CMD[0]), 0, 0 },
	{ "mmCKSVII2C1_IC_SS_SCL_HCNT", REG_MMIO, 0x0085, 0, &mmCKSVII2C1_IC_SS_SCL_HCNT[0], sizeof(mmCKSVII2C1_IC_SS_SCL_HCNT)/sizeof(mmCKSVII2C1_IC_SS_SCL_HCNT[0]), 0, 0 },
	{ "mmCKSVII2C1_IC_SS_SCL_LCNT", REG_MMIO, 0x0086, 0, &mmCKSVII2C1_IC_SS_SCL_LCNT[0], sizeof(mmCKSVII2C1_IC_SS_SCL_LCNT)/sizeof(mmCKSVII2C1_IC_SS_SCL_LCNT[0]), 0, 0 },
	{ "mmCKSVII2C1_IC_FS_SCL_HCNT", REG_MMIO, 0x0087, 0, &mmCKSVII2C1_IC_FS_SCL_HCNT[0], sizeof(mmCKSVII2C1_IC_FS_SCL_HCNT)/sizeof(mmCKSVII2C1_IC_FS_SCL_HCNT[0]), 0, 0 },
	{ "mmCKSVII2C1_IC_FS_SCL_LCNT", REG_MMIO, 0x0088, 0, &mmCKSVII2C1_IC_FS_SCL_LCNT[0], sizeof(mmCKSVII2C1_IC_FS_SCL_LCNT)/sizeof(mmCKSVII2C1_IC_FS_SCL_LCNT[0]), 0, 0 },
	{ "mmCKSVII2C1_IC_HS_SCL_HCNT", REG_MMIO, 0x0089, 0, &mmCKSVII2C1_IC_HS_SCL_HCNT[0], sizeof(mmCKSVII2C1_IC_HS_SCL_HCNT)/sizeof(mmCKSVII2C1_IC_HS_SCL_HCNT[0]), 0, 0 },
	{ "mmCKSVII2C1_IC_HS_SCL_LCNT", REG_MMIO, 0x008a, 0, &mmCKSVII2C1_IC_HS_SCL_LCNT[0], sizeof(mmCKSVII2C1_IC_HS_SCL_LCNT)/sizeof(mmCKSVII2C1_IC_HS_SCL_LCNT[0]), 0, 0 },
	{ "mmCKSVII2C1_IC_INTR_STAT", REG_MMIO, 0x008b, 0, &mmCKSVII2C1_IC_INTR_STAT[0], sizeof(mmCKSVII2C1_IC_INTR_STAT)/sizeof(mmCKSVII2C1_IC_INTR_STAT[0]), 0, 0 },
	{ "mmCKSVII2C1_IC_INTR_MASK", REG_MMIO, 0x008c, 0, &mmCKSVII2C1_IC_INTR_MASK[0], sizeof(mmCKSVII2C1_IC_INTR_MASK)/sizeof(mmCKSVII2C1_IC_INTR_MASK[0]), 0, 0 },
	{ "mmCKSVII2C1_IC_RAW_INTR_STAT", REG_MMIO, 0x008d, 0, NULL, 0, 0, 0 },
	{ "mmCKSVII2C1_IC_RX_TL", REG_MMIO, 0x008e, 0, NULL, 0, 0, 0 },
	{ "mmCKSVII2C1_IC_TX_TL", REG_MMIO, 0x008f, 0, NULL, 0, 0, 0 },
	{ "mmCKSVII2C1_IC_CLR_INTR", REG_MMIO, 0x0090, 0, NULL, 0, 0, 0 },
	{ "mmCKSVII2C1_IC_CLR_RX_UNDER", REG_MMIO, 0x0091, 0, NULL, 0, 0, 0 },
	{ "mmCKSVII2C1_IC_CLR_RX_OVER", REG_MMIO, 0x0092, 0, NULL, 0, 0, 0 },
	{ "mmCKSVII2C1_IC_CLR_TX_OVER", REG_MMIO, 0x0093, 0, NULL, 0, 0, 0 },
	{ "mmCKSVII2C1_IC_CLR_RD_REQ", REG_MMIO, 0x0094, 0, NULL, 0, 0, 0 },
	{ "mmCKSVII2C1_IC_CLR_TX_ABRT", REG_MMIO, 0x0095, 0, NULL, 0, 0, 0 },
	{ "mmCKSVII2C1_IC_CLR_RX_DONE", REG_MMIO, 0x0096, 0, NULL, 0, 0, 0 },
	{ "mmCKSVII2C1_IC_CLR_ACTIVITY", REG_MMIO, 0x0097, 0, NULL, 0, 0, 0 },
	{ "mmCKSVII2C1_IC_CLR_STOP_DET", REG_MMIO, 0x0098, 0, NULL, 0, 0, 0 },
	{ "mmCKSVII2C1_IC_CLR_START_DET", REG_MMIO, 0x0099, 0, NULL, 0, 0, 0 },
	{ "mmCKSVII2C1_IC_CLR_GEN_CALL", REG_MMIO, 0x009a, 0, NULL, 0, 0, 0 },
	{ "mmCKSVII2C1_IC_ENABLE", REG_MMIO, 0x009b, 0, &mmCKSVII2C1_IC_ENABLE[0], sizeof(mmCKSVII2C1_IC_ENABLE)/sizeof(mmCKSVII2C1_IC_ENABLE[0]), 0, 0 },
	{ "mmCKSVII2C1_IC_STATUS", REG_MMIO, 0x009c, 0, &mmCKSVII2C1_IC_STATUS[0], sizeof(mmCKSVII2C1_IC_STATUS)/sizeof(mmCKSVII2C1_IC_STATUS[0]), 0, 0 },
	{ "mmCKSVII2C1_IC_TXFLR", REG_MMIO, 0x009d, 0, NULL, 0, 0, 0 },
	{ "mmCKSVII2C1_IC_RXFLR", REG_MMIO, 0x009e, 0, NULL, 0, 0, 0 },
	{ "mmCKSVII2C1_IC_SDA_HOLD", REG_MMIO, 0x009f, 0, &mmCKSVII2C1_IC_SDA_HOLD[0], sizeof(mmCKSVII2C1_IC_SDA_HOLD)/sizeof(mmCKSVII2C1_IC_SDA_HOLD[0]), 0, 0 },
	{ "mmCKSVII2C1_IC_TX_ABRT_SOURCE", REG_MMIO, 0x00a0, 0, NULL, 0, 0, 0 },
	{ "mmCKSVII2C1_IC_SLV_DATA_NACK_ONLY", REG_MMIO, 0x00a1, 0, NULL, 0, 0, 0 },
	{ "mmCKSVII2C1_IC_DMA_CR", REG_MMIO, 0x00a2, 0, NULL, 0, 0, 0 },
	{ "mmCKSVII2C1_IC_DMA_TDLR", REG_MMIO, 0x00a3, 0, NULL, 0, 0, 0 },
	{ "mmCKSVII2C1_IC_DMA_RDLR", REG_MMIO, 0x00a4, 0, NULL, 0, 0, 0 },
	{ "mmCKSVII2C1_IC_SDA_SETUP", REG_MMIO, 0x00a5, 0, &mmCKSVII2C1_IC_SDA_SETUP[0], sizeof(mmCKSVII2C1_IC_SDA_SETUP)/sizeof(mmCKSVII2C1_IC_SDA_SETUP[0]), 0, 0 },
	{ "mmCKSVII2C1_IC_ACK_GENERAL_CALL", REG_MMIO, 0x00a6, 0, &mmCKSVII2C1_IC_ACK_GENERAL_CALL[0], sizeof(mmCKSVII2C1_IC_ACK_GENERAL_CALL)/sizeof(mmCKSVII2C1_IC_ACK_GENERAL_CALL[0]), 0, 0 },
	{ "mmCKSVII2C1_IC_ENABLE_STATUS", REG_MMIO, 0x00a7, 0, &mmCKSVII2C1_IC_ENABLE_STATUS[0], sizeof(mmCKSVII2C1_IC_ENABLE_STATUS)/sizeof(mmCKSVII2C1_IC_ENABLE_STATUS[0]), 0, 0 },
	{ "mmCKSVII2C1_IC_FS_SPKLEN", REG_MMIO, 0x00a8, 0, NULL, 0, 0, 0 },
	{ "mmCKSVII2C1_IC_HS_SPKLEN", REG_MMIO, 0x00a9, 0, NULL, 0, 0, 0 },
	{ "mmCKSVII2C1_IC_CLR_RESTART_DET", REG_MMIO, 0x00aa, 0, NULL, 0, 0, 0 },
	{ "mmCKSVII2C1_IC_COMP_PARAM_1", REG_MMIO, 0x00ab, 0, NULL, 0, 0, 0 },
	{ "mmCKSVII2C1_IC_COMP_VERSION", REG_MMIO, 0x00ac, 0, NULL, 0, 0, 0 },
	{ "mmCKSVII2C1_IC_COMP_TYPE", REG_MMIO, 0x00ad, 0, NULL, 0, 0, 0 },
	{ "mmSMUIO_MP_RESET_INTR", REG_MMIO, 0x00c1, 0, &mmSMUIO_MP_RESET_INTR[0], sizeof(mmSMUIO_MP_RESET_INTR)/sizeof(mmSMUIO_MP_RESET_INTR[0]), 0, 0 },
	{ "mmSMUIO_SOC_HALT", REG_MMIO, 0x00c2, 0, &mmSMUIO_SOC_HALT[0], sizeof(mmSMUIO_SOC_HALT)/sizeof(mmSMUIO_SOC_HALT[0]), 0, 0 },
	{ "mmSMUIO_PWRMGT", REG_MMIO, 0x00c8, 0, &mmSMUIO_PWRMGT[0], sizeof(mmSMUIO_PWRMGT)/sizeof(mmSMUIO_PWRMGT[0]), 0, 0 },
	{ "mmROM_CNTL", REG_MMIO, 0x00e0, 0, &mmROM_CNTL[0], sizeof(mmROM_CNTL)/sizeof(mmROM_CNTL[0]), 0, 0 },
	{ "mmPAGE_MIRROR_CNTL", REG_MMIO, 0x00e1, 0, &mmPAGE_MIRROR_CNTL[0], sizeof(mmPAGE_MIRROR_CNTL)/sizeof(mmPAGE_MIRROR_CNTL[0]), 0, 0 },
	{ "mmROM_STATUS", REG_MMIO, 0x00e2, 0, &mmROM_STATUS[0], sizeof(mmROM_STATUS)/sizeof(mmROM_STATUS[0]), 0, 0 },
	{ "mmCGTT_ROM_CLK_CTRL0", REG_MMIO, 0x00e3, 0, &mmCGTT_ROM_CLK_CTRL0[0], sizeof(mmCGTT_ROM_CLK_CTRL0)/sizeof(mmCGTT_ROM_CLK_CTRL0[0]), 0, 0 },
	{ "mmROM_INDEX", REG_MMIO, 0x00e4, 0, &mmROM_INDEX[0], sizeof(mmROM_INDEX)/sizeof(mmROM_INDEX[0]), 0, 0 },
	{ "mmROM_DATA", REG_MMIO, 0x00e5, 0, &mmROM_DATA[0], sizeof(mmROM_DATA)/sizeof(mmROM_DATA[0]), 0, 0 },
	{ "mmROM_START", REG_MMIO, 0x00e6, 0, &mmROM_START[0], sizeof(mmROM_START)/sizeof(mmROM_START[0]), 0, 0 },
	{ "mmROM_SW_CNTL", REG_MMIO, 0x00e7, 0, &mmROM_SW_CNTL[0], sizeof(mmROM_SW_CNTL)/sizeof(mmROM_SW_CNTL[0]), 0, 0 },
	{ "mmROM_SW_STATUS", REG_MMIO, 0x00e8, 0, &mmROM_SW_STATUS[0], sizeof(mmROM_SW_STATUS)/sizeof(mmROM_SW_STATUS[0]), 0, 0 },
	{ "mmROM_SW_COMMAND", REG_MMIO, 0x00e9, 0, &mmROM_SW_COMMAND[0], sizeof(mmROM_SW_COMMAND)/sizeof(mmROM_SW_COMMAND[0]), 0, 0 },
	{ "mmROM_SW_DATA_1", REG_MMIO, 0x00ea, 0, &mmROM_SW_DATA_1[0], sizeof(mmROM_SW_DATA_1)/sizeof(mmROM_SW_DATA_1[0]), 0, 0 },
	{ "mmROM_SW_DATA_2", REG_MMIO, 0x00eb, 0, &mmROM_SW_DATA_2[0], sizeof(mmROM_SW_DATA_2)/sizeof(mmROM_SW_DATA_2[0]), 0, 0 },
	{ "mmROM_SW_DATA_3", REG_MMIO, 0x00ec, 0, &mmROM_SW_DATA_3[0], sizeof(mmROM_SW_DATA_3)/sizeof(mmROM_SW_DATA_3[0]), 0, 0 },
	{ "mmROM_SW_DATA_4", REG_MMIO, 0x00ed, 0, &mmROM_SW_DATA_4[0], sizeof(mmROM_SW_DATA_4)/sizeof(mmROM_SW_DATA_4[0]), 0, 0 },
	{ "mmROM_SW_DATA_5", REG_MMIO, 0x00ee, 0, &mmROM_SW_DATA_5[0], sizeof(mmROM_SW_DATA_5)/sizeof(mmROM_SW_DATA_5[0]), 0, 0 },
	{ "mmROM_SW_DATA_6", REG_MMIO, 0x00ef, 0, &mmROM_SW_DATA_6[0], sizeof(mmROM_SW_DATA_6)/sizeof(mmROM_SW_DATA_6[0]), 0, 0 },
	{ "mmROM_SW_DATA_7", REG_MMIO, 0x00f0, 0, &mmROM_SW_DATA_7[0], sizeof(mmROM_SW_DATA_7)/sizeof(mmROM_SW_DATA_7[0]), 0, 0 },
	{ "mmROM_SW_DATA_8", REG_MMIO, 0x00f1, 0, &mmROM_SW_DATA_8[0], sizeof(mmROM_SW_DATA_8)/sizeof(mmROM_SW_DATA_8[0]), 0, 0 },
	{ "mmROM_SW_DATA_9", REG_MMIO, 0x00f2, 0, &mmROM_SW_DATA_9[0], sizeof(mmROM_SW_DATA_9)/sizeof(mmROM_SW_DATA_9[0]), 0, 0 },
	{ "mmROM_SW_DATA_10", REG_MMIO, 0x00f3, 0, &mmROM_SW_DATA_10[0], sizeof(mmROM_SW_DATA_10)/sizeof(mmROM_SW_DATA_10[0]), 0, 0 },
	{ "mmROM_SW_DATA_11", REG_MMIO, 0x00f4, 0, &mmROM_SW_DATA_11[0], sizeof(mmROM_SW_DATA_11)/sizeof(mmROM_SW_DATA_11[0]), 0, 0 },
	{ "mmROM_SW_DATA_12", REG_MMIO, 0x00f5, 0, &mmROM_SW_DATA_12[0], sizeof(mmROM_SW_DATA_12)/sizeof(mmROM_SW_DATA_12[0]), 0, 0 },
	{ "mmROM_SW_DATA_13", REG_MMIO, 0x00f6, 0, &mmROM_SW_DATA_13[0], sizeof(mmROM_SW_DATA_13)/sizeof(mmROM_SW_DATA_13[0]), 0, 0 },
	{ "mmROM_SW_DATA_14", REG_MMIO, 0x00f7, 0, &mmROM_SW_DATA_14[0], sizeof(mmROM_SW_DATA_14)/sizeof(mmROM_SW_DATA_14[0]), 0, 0 },
	{ "mmROM_SW_DATA_15", REG_MMIO, 0x00f8, 0, &mmROM_SW_DATA_15[0], sizeof(mmROM_SW_DATA_15)/sizeof(mmROM_SW_DATA_15[0]), 0, 0 },
	{ "mmROM_SW_DATA_16", REG_MMIO, 0x00f9, 0, &mmROM_SW_DATA_16[0], sizeof(mmROM_SW_DATA_16)/sizeof(mmROM_SW_DATA_16[0]), 0, 0 },
	{ "mmROM_SW_DATA_17", REG_MMIO, 0x00fa, 0, &mmROM_SW_DATA_17[0], sizeof(mmROM_SW_DATA_17)/sizeof(mmROM_SW_DATA_17[0]), 0, 0 },
	{ "mmROM_SW_DATA_18", REG_MMIO, 0x00fb, 0, &mmROM_SW_DATA_18[0], sizeof(mmROM_SW_DATA_18)/sizeof(mmROM_SW_DATA_18[0]), 0, 0 },
	{ "mmROM_SW_DATA_19", REG_MMIO, 0x00fc, 0, &mmROM_SW_DATA_19[0], sizeof(mmROM_SW_DATA_19)/sizeof(mmROM_SW_DATA_19[0]), 0, 0 },
	{ "mmROM_SW_DATA_20", REG_MMIO, 0x00fd, 0, &mmROM_SW_DATA_20[0], sizeof(mmROM_SW_DATA_20)/sizeof(mmROM_SW_DATA_20[0]), 0, 0 },
	{ "mmROM_SW_DATA_21", REG_MMIO, 0x00fe, 0, &mmROM_SW_DATA_21[0], sizeof(mmROM_SW_DATA_21)/sizeof(mmROM_SW_DATA_21[0]), 0, 0 },
	{ "mmROM_SW_DATA_22", REG_MMIO, 0x00ff, 0, &mmROM_SW_DATA_22[0], sizeof(mmROM_SW_DATA_22)/sizeof(mmROM_SW_DATA_22[0]), 0, 0 },
	{ "mmROM_SW_DATA_23", REG_MMIO, 0x0100, 0, &mmROM_SW_DATA_23[0], sizeof(mmROM_SW_DATA_23)/sizeof(mmROM_SW_DATA_23[0]), 0, 0 },
	{ "mmROM_SW_DATA_24", REG_MMIO, 0x0101, 0, &mmROM_SW_DATA_24[0], sizeof(mmROM_SW_DATA_24)/sizeof(mmROM_SW_DATA_24[0]), 0, 0 },
	{ "mmROM_SW_DATA_25", REG_MMIO, 0x0102, 0, &mmROM_SW_DATA_25[0], sizeof(mmROM_SW_DATA_25)/sizeof(mmROM_SW_DATA_25[0]), 0, 0 },
	{ "mmROM_SW_DATA_26", REG_MMIO, 0x0103, 0, &mmROM_SW_DATA_26[0], sizeof(mmROM_SW_DATA_26)/sizeof(mmROM_SW_DATA_26[0]), 0, 0 },
	{ "mmROM_SW_DATA_27", REG_MMIO, 0x0104, 0, &mmROM_SW_DATA_27[0], sizeof(mmROM_SW_DATA_27)/sizeof(mmROM_SW_DATA_27[0]), 0, 0 },
	{ "mmROM_SW_DATA_28", REG_MMIO, 0x0105, 0, &mmROM_SW_DATA_28[0], sizeof(mmROM_SW_DATA_28)/sizeof(mmROM_SW_DATA_28[0]), 0, 0 },
	{ "mmROM_SW_DATA_29", REG_MMIO, 0x0106, 0, &mmROM_SW_DATA_29[0], sizeof(mmROM_SW_DATA_29)/sizeof(mmROM_SW_DATA_29[0]), 0, 0 },
	{ "mmROM_SW_DATA_30", REG_MMIO, 0x0107, 0, &mmROM_SW_DATA_30[0], sizeof(mmROM_SW_DATA_30)/sizeof(mmROM_SW_DATA_30[0]), 0, 0 },
	{ "mmROM_SW_DATA_31", REG_MMIO, 0x0108, 0, &mmROM_SW_DATA_31[0], sizeof(mmROM_SW_DATA_31)/sizeof(mmROM_SW_DATA_31[0]), 0, 0 },
	{ "mmROM_SW_DATA_32", REG_MMIO, 0x0109, 0, &mmROM_SW_DATA_32[0], sizeof(mmROM_SW_DATA_32)/sizeof(mmROM_SW_DATA_32[0]), 0, 0 },
	{ "mmROM_SW_DATA_33", REG_MMIO, 0x010a, 0, &mmROM_SW_DATA_33[0], sizeof(mmROM_SW_DATA_33)/sizeof(mmROM_SW_DATA_33[0]), 0, 0 },
	{ "mmROM_SW_DATA_34", REG_MMIO, 0x010b, 0, &mmROM_SW_DATA_34[0], sizeof(mmROM_SW_DATA_34)/sizeof(mmROM_SW_DATA_34[0]), 0, 0 },
	{ "mmROM_SW_DATA_35", REG_MMIO, 0x010c, 0, &mmROM_SW_DATA_35[0], sizeof(mmROM_SW_DATA_35)/sizeof(mmROM_SW_DATA_35[0]), 0, 0 },
	{ "mmROM_SW_DATA_36", REG_MMIO, 0x010d, 0, &mmROM_SW_DATA_36[0], sizeof(mmROM_SW_DATA_36)/sizeof(mmROM_SW_DATA_36[0]), 0, 0 },
	{ "mmROM_SW_DATA_37", REG_MMIO, 0x010e, 0, &mmROM_SW_DATA_37[0], sizeof(mmROM_SW_DATA_37)/sizeof(mmROM_SW_DATA_37[0]), 0, 0 },
	{ "mmROM_SW_DATA_38", REG_MMIO, 0x010f, 0, &mmROM_SW_DATA_38[0], sizeof(mmROM_SW_DATA_38)/sizeof(mmROM_SW_DATA_38[0]), 0, 0 },
	{ "mmROM_SW_DATA_39", REG_MMIO, 0x0110, 0, &mmROM_SW_DATA_39[0], sizeof(mmROM_SW_DATA_39)/sizeof(mmROM_SW_DATA_39[0]), 0, 0 },
	{ "mmROM_SW_DATA_40", REG_MMIO, 0x0111, 0, &mmROM_SW_DATA_40[0], sizeof(mmROM_SW_DATA_40)/sizeof(mmROM_SW_DATA_40[0]), 0, 0 },
	{ "mmROM_SW_DATA_41", REG_MMIO, 0x0112, 0, &mmROM_SW_DATA_41[0], sizeof(mmROM_SW_DATA_41)/sizeof(mmROM_SW_DATA_41[0]), 0, 0 },
	{ "mmROM_SW_DATA_42", REG_MMIO, 0x0113, 0, &mmROM_SW_DATA_42[0], sizeof(mmROM_SW_DATA_42)/sizeof(mmROM_SW_DATA_42[0]), 0, 0 },
	{ "mmROM_SW_DATA_43", REG_MMIO, 0x0114, 0, &mmROM_SW_DATA_43[0], sizeof(mmROM_SW_DATA_43)/sizeof(mmROM_SW_DATA_43[0]), 0, 0 },
	{ "mmROM_SW_DATA_44", REG_MMIO, 0x0115, 0, &mmROM_SW_DATA_44[0], sizeof(mmROM_SW_DATA_44)/sizeof(mmROM_SW_DATA_44[0]), 0, 0 },
	{ "mmROM_SW_DATA_45", REG_MMIO, 0x0116, 0, &mmROM_SW_DATA_45[0], sizeof(mmROM_SW_DATA_45)/sizeof(mmROM_SW_DATA_45[0]), 0, 0 },
	{ "mmROM_SW_DATA_46", REG_MMIO, 0x0117, 0, &mmROM_SW_DATA_46[0], sizeof(mmROM_SW_DATA_46)/sizeof(mmROM_SW_DATA_46[0]), 0, 0 },
	{ "mmROM_SW_DATA_47", REG_MMIO, 0x0118, 0, &mmROM_SW_DATA_47[0], sizeof(mmROM_SW_DATA_47)/sizeof(mmROM_SW_DATA_47[0]), 0, 0 },
	{ "mmROM_SW_DATA_48", REG_MMIO, 0x0119, 0, &mmROM_SW_DATA_48[0], sizeof(mmROM_SW_DATA_48)/sizeof(mmROM_SW_DATA_48[0]), 0, 0 },
	{ "mmROM_SW_DATA_49", REG_MMIO, 0x011a, 0, &mmROM_SW_DATA_49[0], sizeof(mmROM_SW_DATA_49)/sizeof(mmROM_SW_DATA_49[0]), 0, 0 },
	{ "mmROM_SW_DATA_50", REG_MMIO, 0x011b, 0, &mmROM_SW_DATA_50[0], sizeof(mmROM_SW_DATA_50)/sizeof(mmROM_SW_DATA_50[0]), 0, 0 },
	{ "mmROM_SW_DATA_51", REG_MMIO, 0x011c, 0, &mmROM_SW_DATA_51[0], sizeof(mmROM_SW_DATA_51)/sizeof(mmROM_SW_DATA_51[0]), 0, 0 },
	{ "mmROM_SW_DATA_52", REG_MMIO, 0x011d, 0, &mmROM_SW_DATA_52[0], sizeof(mmROM_SW_DATA_52)/sizeof(mmROM_SW_DATA_52[0]), 0, 0 },
	{ "mmROM_SW_DATA_53", REG_MMIO, 0x011e, 0, &mmROM_SW_DATA_53[0], sizeof(mmROM_SW_DATA_53)/sizeof(mmROM_SW_DATA_53[0]), 0, 0 },
	{ "mmROM_SW_DATA_54", REG_MMIO, 0x011f, 0, &mmROM_SW_DATA_54[0], sizeof(mmROM_SW_DATA_54)/sizeof(mmROM_SW_DATA_54[0]), 0, 0 },
	{ "mmROM_SW_DATA_55", REG_MMIO, 0x0120, 0, &mmROM_SW_DATA_55[0], sizeof(mmROM_SW_DATA_55)/sizeof(mmROM_SW_DATA_55[0]), 0, 0 },
	{ "mmROM_SW_DATA_56", REG_MMIO, 0x0121, 0, &mmROM_SW_DATA_56[0], sizeof(mmROM_SW_DATA_56)/sizeof(mmROM_SW_DATA_56[0]), 0, 0 },
	{ "mmROM_SW_DATA_57", REG_MMIO, 0x0122, 0, &mmROM_SW_DATA_57[0], sizeof(mmROM_SW_DATA_57)/sizeof(mmROM_SW_DATA_57[0]), 0, 0 },
	{ "mmROM_SW_DATA_58", REG_MMIO, 0x0123, 0, &mmROM_SW_DATA_58[0], sizeof(mmROM_SW_DATA_58)/sizeof(mmROM_SW_DATA_58[0]), 0, 0 },
	{ "mmROM_SW_DATA_59", REG_MMIO, 0x0124, 0, &mmROM_SW_DATA_59[0], sizeof(mmROM_SW_DATA_59)/sizeof(mmROM_SW_DATA_59[0]), 0, 0 },
	{ "mmROM_SW_DATA_60", REG_MMIO, 0x0125, 0, &mmROM_SW_DATA_60[0], sizeof(mmROM_SW_DATA_60)/sizeof(mmROM_SW_DATA_60[0]), 0, 0 },
	{ "mmROM_SW_DATA_61", REG_MMIO, 0x0126, 0, &mmROM_SW_DATA_61[0], sizeof(mmROM_SW_DATA_61)/sizeof(mmROM_SW_DATA_61[0]), 0, 0 },
	{ "mmROM_SW_DATA_62", REG_MMIO, 0x0127, 0, &mmROM_SW_DATA_62[0], sizeof(mmROM_SW_DATA_62)/sizeof(mmROM_SW_DATA_62[0]), 0, 0 },
	{ "mmROM_SW_DATA_63", REG_MMIO, 0x0128, 0, &mmROM_SW_DATA_63[0], sizeof(mmROM_SW_DATA_63)/sizeof(mmROM_SW_DATA_63[0]), 0, 0 },
	{ "mmROM_SW_DATA_64", REG_MMIO, 0x0129, 0, &mmROM_SW_DATA_64[0], sizeof(mmROM_SW_DATA_64)/sizeof(mmROM_SW_DATA_64[0]), 0, 0 },
	{ "mmSMU_GPIOPAD_SW_INT_STAT", REG_MMIO, 0x0140, 0, &mmSMU_GPIOPAD_SW_INT_STAT[0], sizeof(mmSMU_GPIOPAD_SW_INT_STAT)/sizeof(mmSMU_GPIOPAD_SW_INT_STAT[0]), 0, 0 },
	{ "mmSMU_GPIOPAD_MASK", REG_MMIO, 0x0141, 0, &mmSMU_GPIOPAD_MASK[0], sizeof(mmSMU_GPIOPAD_MASK)/sizeof(mmSMU_GPIOPAD_MASK[0]), 0, 0 },
	{ "mmSMU_GPIOPAD_A", REG_MMIO, 0x0142, 0, &mmSMU_GPIOPAD_A[0], sizeof(mmSMU_GPIOPAD_A)/sizeof(mmSMU_GPIOPAD_A[0]), 0, 0 },
	{ "mmSMU_GPIOPAD_TXIMPSEL", REG_MMIO, 0x0143, 0, &mmSMU_GPIOPAD_TXIMPSEL[0], sizeof(mmSMU_GPIOPAD_TXIMPSEL)/sizeof(mmSMU_GPIOPAD_TXIMPSEL[0]), 0, 0 },
	{ "mmSMU_GPIOPAD_EN", REG_MMIO, 0x0144, 0, &mmSMU_GPIOPAD_EN[0], sizeof(mmSMU_GPIOPAD_EN)/sizeof(mmSMU_GPIOPAD_EN[0]), 0, 0 },
	{ "mmSMU_GPIOPAD_Y", REG_MMIO, 0x0145, 0, &mmSMU_GPIOPAD_Y[0], sizeof(mmSMU_GPIOPAD_Y)/sizeof(mmSMU_GPIOPAD_Y[0]), 0, 0 },
	{ "mmSMU_GPIOPAD_RXEN", REG_MMIO, 0x0146, 0, &mmSMU_GPIOPAD_RXEN[0], sizeof(mmSMU_GPIOPAD_RXEN)/sizeof(mmSMU_GPIOPAD_RXEN[0]), 0, 0 },
	{ "mmSMU_GPIOPAD_RCVR_SEL0", REG_MMIO, 0x0147, 0, &mmSMU_GPIOPAD_RCVR_SEL0[0], sizeof(mmSMU_GPIOPAD_RCVR_SEL0)/sizeof(mmSMU_GPIOPAD_RCVR_SEL0[0]), 0, 0 },
	{ "mmSMU_GPIOPAD_RCVR_SEL1", REG_MMIO, 0x0148, 0, &mmSMU_GPIOPAD_RCVR_SEL1[0], sizeof(mmSMU_GPIOPAD_RCVR_SEL1)/sizeof(mmSMU_GPIOPAD_RCVR_SEL1[0]), 0, 0 },
	{ "mmSMU_GPIOPAD_PU_EN", REG_MMIO, 0x0149, 0, &mmSMU_GPIOPAD_PU_EN[0], sizeof(mmSMU_GPIOPAD_PU_EN)/sizeof(mmSMU_GPIOPAD_PU_EN[0]), 0, 0 },
	{ "mmSMU_GPIOPAD_PD_EN", REG_MMIO, 0x014a, 0, &mmSMU_GPIOPAD_PD_EN[0], sizeof(mmSMU_GPIOPAD_PD_EN)/sizeof(mmSMU_GPIOPAD_PD_EN[0]), 0, 0 },
	{ "mmSMU_GPIOPAD_PINSTRAPS", REG_MMIO, 0x014b, 0, &mmSMU_GPIOPAD_PINSTRAPS[0], sizeof(mmSMU_GPIOPAD_PINSTRAPS)/sizeof(mmSMU_GPIOPAD_PINSTRAPS[0]), 0, 0 },
	{ "mmDFT_PINSTRAPS", REG_MMIO, 0x014c, 0, &mmDFT_PINSTRAPS[0], sizeof(mmDFT_PINSTRAPS)/sizeof(mmDFT_PINSTRAPS[0]), 0, 0 },
	{ "mmSMU_GPIOPAD_INT_STAT_EN", REG_MMIO, 0x014d, 0, &mmSMU_GPIOPAD_INT_STAT_EN[0], sizeof(mmSMU_GPIOPAD_INT_STAT_EN)/sizeof(mmSMU_GPIOPAD_INT_STAT_EN[0]), 0, 0 },
	{ "mmSMU_GPIOPAD_INT_STAT", REG_MMIO, 0x014e, 0, &mmSMU_GPIOPAD_INT_STAT[0], sizeof(mmSMU_GPIOPAD_INT_STAT)/sizeof(mmSMU_GPIOPAD_INT_STAT[0]), 0, 0 },
	{ "mmSMU_GPIOPAD_INT_STAT_AK", REG_MMIO, 0x014f, 0, &mmSMU_GPIOPAD_INT_STAT_AK[0], sizeof(mmSMU_GPIOPAD_INT_STAT_AK)/sizeof(mmSMU_GPIOPAD_INT_STAT_AK[0]), 0, 0 },
	{ "mmSMU_GPIOPAD_INT_EN", REG_MMIO, 0x0150, 0, &mmSMU_GPIOPAD_INT_EN[0], sizeof(mmSMU_GPIOPAD_INT_EN)/sizeof(mmSMU_GPIOPAD_INT_EN[0]), 0, 0 },
	{ "mmSMU_GPIOPAD_INT_TYPE", REG_MMIO, 0x0151, 0, &mmSMU_GPIOPAD_INT_TYPE[0], sizeof(mmSMU_GPIOPAD_INT_TYPE)/sizeof(mmSMU_GPIOPAD_INT_TYPE[0]), 0, 0 },
	{ "mmSMU_GPIOPAD_INT_POLARITY", REG_MMIO, 0x0152, 0, &mmSMU_GPIOPAD_INT_POLARITY[0], sizeof(mmSMU_GPIOPAD_INT_POLARITY)/sizeof(mmSMU_GPIOPAD_INT_POLARITY[0]), 0, 0 },
	{ "mmROM_CC_BIF_PINSTRAP", REG_MMIO, 0x0153, 0, &mmROM_CC_BIF_PINSTRAP[0], sizeof(mmROM_CC_BIF_PINSTRAP)/sizeof(mmROM_CC_BIF_PINSTRAP[0]), 0, 0 },
	{ "mmIO_SMUIO_PINSTRAP", REG_MMIO, 0x0154, 0, &mmIO_SMUIO_PINSTRAP[0], sizeof(mmIO_SMUIO_PINSTRAP)/sizeof(mmIO_SMUIO_PINSTRAP[0]), 0, 0 },
	{ "mmSMUIO_PCC_CONTROL", REG_MMIO, 0x0155, 0, &mmSMUIO_PCC_CONTROL[0], sizeof(mmSMUIO_PCC_CONTROL)/sizeof(mmSMUIO_PCC_CONTROL[0]), 0, 0 },
	{ "mmSMUIO_PCC_GPIO_SELECT", REG_MMIO, 0x0156, 0, &mmSMUIO_PCC_GPIO_SELECT[0], sizeof(mmSMUIO_PCC_GPIO_SELECT)/sizeof(mmSMUIO_PCC_GPIO_SELECT[0]), 0, 0 },
	{ "mmSMUIO_GPIO_INT0_SELECT", REG_MMIO, 0x0157, 0, &mmSMUIO_GPIO_INT0_SELECT[0], sizeof(mmSMUIO_GPIO_INT0_SELECT)/sizeof(mmSMUIO_GPIO_INT0_SELECT[0]), 0, 0 },
	{ "mmSMUIO_GPIO_INT1_SELECT", REG_MMIO, 0x0158, 0, &mmSMUIO_GPIO_INT1_SELECT[0], sizeof(mmSMUIO_GPIO_INT1_SELECT)/sizeof(mmSMUIO_GPIO_INT1_SELECT[0]), 0, 0 },
	{ "mmSMUIO_GPIO_INT2_SELECT", REG_MMIO, 0x0159, 0, &mmSMUIO_GPIO_INT2_SELECT[0], sizeof(mmSMUIO_GPIO_INT2_SELECT)/sizeof(mmSMUIO_GPIO_INT2_SELECT[0]), 0, 0 },
	{ "mmSMUIO_GPIO_INT3_SELECT", REG_MMIO, 0x015a, 0, &mmSMUIO_GPIO_INT3_SELECT[0], sizeof(mmSMUIO_GPIO_INT3_SELECT)/sizeof(mmSMUIO_GPIO_INT3_SELECT[0]), 0, 0 },
	{ "mmSMU_GPIOPAD_MP_INT0_STAT", REG_MMIO, 0x015b, 0, &mmSMU_GPIOPAD_MP_INT0_STAT[0], sizeof(mmSMU_GPIOPAD_MP_INT0_STAT)/sizeof(mmSMU_GPIOPAD_MP_INT0_STAT[0]), 0, 0 },
	{ "mmSMU_GPIOPAD_MP_INT1_STAT", REG_MMIO, 0x015c, 0, &mmSMU_GPIOPAD_MP_INT1_STAT[0], sizeof(mmSMU_GPIOPAD_MP_INT1_STAT)/sizeof(mmSMU_GPIOPAD_MP_INT1_STAT[0]), 0, 0 },
	{ "mmSMU_GPIOPAD_MP_INT2_STAT", REG_MMIO, 0x015d, 0, &mmSMU_GPIOPAD_MP_INT2_STAT[0], sizeof(mmSMU_GPIOPAD_MP_INT2_STAT)/sizeof(mmSMU_GPIOPAD_MP_INT2_STAT[0]), 0, 0 },
	{ "mmSMU_GPIOPAD_MP_INT3_STAT", REG_MMIO, 0x015e, 0, &mmSMU_GPIOPAD_MP_INT3_STAT[0], sizeof(mmSMU_GPIOPAD_MP_INT3_STAT)/sizeof(mmSMU_GPIOPAD_MP_INT3_STAT[0]), 0, 0 },
	{ "mmSMIO_INDEX", REG_MMIO, 0x015f, 0, &mmSMIO_INDEX[0], sizeof(mmSMIO_INDEX)/sizeof(mmSMIO_INDEX[0]), 0, 0 },
	{ "mmS0_VID_SMIO_CNTL", REG_MMIO, 0x0160, 0, &mmS0_VID_SMIO_CNTL[0], sizeof(mmS0_VID_SMIO_CNTL)/sizeof(mmS0_VID_SMIO_CNTL[0]), 0, 0 },
	{ "mmS1_VID_SMIO_CNTL", REG_MMIO, 0x0161, 0, &mmS1_VID_SMIO_CNTL[0], sizeof(mmS1_VID_SMIO_CNTL)/sizeof(mmS1_VID_SMIO_CNTL[0]), 0, 0 },
	{ "mmOPEN_DRAIN_SELECT", REG_MMIO, 0x0162, 0, &mmOPEN_DRAIN_SELECT[0], sizeof(mmOPEN_DRAIN_SELECT)/sizeof(mmOPEN_DRAIN_SELECT[0]), 0, 0 },
	{ "mmSMIO_ENABLE", REG_MMIO, 0x0163, 0, &mmSMIO_ENABLE[0], sizeof(mmSMIO_ENABLE)/sizeof(mmSMIO_ENABLE[0]), 0, 0 },
	{ "mmSMU_GPIOPAD_S0", REG_MMIO, 0x0166, 0, &mmSMU_GPIOPAD_S0[0], sizeof(mmSMU_GPIOPAD_S0)/sizeof(mmSMU_GPIOPAD_S0[0]), 0, 0 },
	{ "mmSMU_GPIOPAD_S1", REG_MMIO, 0x0167, 0, &mmSMU_GPIOPAD_S1[0], sizeof(mmSMU_GPIOPAD_S1)/sizeof(mmSMU_GPIOPAD_S1[0]), 0, 0 },
	{ "mmSMU_GPIOPAD_SCL_EN", REG_MMIO, 0x0168, 0, &mmSMU_GPIOPAD_SCL_EN[0], sizeof(mmSMU_GPIOPAD_SCL_EN)/sizeof(mmSMU_GPIOPAD_SCL_EN[0]), 0, 0 },
	{ "mmSMU_GPIOPAD_SDA_EN", REG_MMIO, 0x0169, 0, &mmSMU_GPIOPAD_SDA_EN[0], sizeof(mmSMU_GPIOPAD_SDA_EN)/sizeof(mmSMU_GPIOPAD_SDA_EN[0]), 0, 0 },
	{ "mmSMU_GPIOPAD_SCHMEN", REG_MMIO, 0x016a, 0, &mmSMU_GPIOPAD_SCHMEN[0], sizeof(mmSMU_GPIOPAD_SCHMEN)/sizeof(mmSMU_GPIOPAD_SCHMEN[0]), 0, 0 },
	{ "mmIP_DISCOVERY_VERSION", REG_MMIO, 0x0000, 1, &mmIP_DISCOVERY_VERSION[0], sizeof(mmIP_DISCOVERY_VERSION)/sizeof(mmIP_DISCOVERY_VERSION[0]), 0, 0 },
	{ "mmSOC_GAP_PWROK", REG_MMIO, 0x00f8, 1, &mmSOC_GAP_PWROK[0], sizeof(mmSOC_GAP_PWROK)/sizeof(mmSOC_GAP_PWROK[0]), 0, 0 },
	{ "mmGFX_GAP_PWROK", REG_MMIO, 0x00f9, 1, &mmGFX_GAP_PWROK[0], sizeof(mmGFX_GAP_PWROK)/sizeof(mmGFX_GAP_PWROK[0]), 0, 0 },
	{ "mmPWROK_REFCLK_GAP_CYCLES", REG_MMIO, 0x00fa, 1, &mmPWROK_REFCLK_GAP_CYCLES[0], sizeof(mmPWROK_REFCLK_GAP_CYCLES)/sizeof(mmPWROK_REFCLK_GAP_CYCLES[0]), 0, 0 },
	{ "mmGOLDEN_TSC_INCREMENT_UPPER", REG_MMIO, 0x0100, 1, &mmGOLDEN_TSC_INCREMENT_UPPER[0], sizeof(mmGOLDEN_TSC_INCREMENT_UPPER)/sizeof(mmGOLDEN_TSC_INCREMENT_UPPER[0]), 0, 0 },
	{ "mmGOLDEN_TSC_INCREMENT_LOWER", REG_MMIO, 0x0101, 1, &mmGOLDEN_TSC_INCREMENT_LOWER[0], sizeof(mmGOLDEN_TSC_INCREMENT_LOWER)/sizeof(mmGOLDEN_TSC_INCREMENT_LOWER[0]), 0, 0 },
	{ "mmGOLDEN_TSC_COUNT_UPPER", REG_MMIO, 0x0102, 1, &mmGOLDEN_TSC_COUNT_UPPER[0], sizeof(mmGOLDEN_TSC_COUNT_UPPER)/sizeof(mmGOLDEN_TSC_COUNT_UPPER[0]), 0, 0 },
	{ "mmGOLDEN_TSC_COUNT_LOWER", REG_MMIO, 0x0103, 1, &mmGOLDEN_TSC_COUNT_LOWER[0], sizeof(mmGOLDEN_TSC_COUNT_LOWER)/sizeof(mmGOLDEN_TSC_COUNT_LOWER[0]), 0, 0 },
	{ "mmSOC_GOLDEN_TSC_SHADOW_UPPER", REG_MMIO, 0x0104, 1, &mmSOC_GOLDEN_TSC_SHADOW_UPPER[0], sizeof(mmSOC_GOLDEN_TSC_SHADOW_UPPER)/sizeof(mmSOC_GOLDEN_TSC_SHADOW_UPPER[0]), 0, 0 },
	{ "mmSOC_GOLDEN_TSC_SHADOW_LOWER", REG_MMIO, 0x0105, 1, &mmSOC_GOLDEN_TSC_SHADOW_LOWER[0], sizeof(mmSOC_GOLDEN_TSC_SHADOW_LOWER)/sizeof(mmSOC_GOLDEN_TSC_SHADOW_LOWER[0]), 0, 0 },
	{ "mmGFX_GOLDEN_TSC_SHADOW_UPPER", REG_MMIO, 0x0106, 1, &mmGFX_GOLDEN_TSC_SHADOW_UPPER[0], sizeof(mmGFX_GOLDEN_TSC_SHADOW_UPPER)/sizeof(mmGFX_GOLDEN_TSC_SHADOW_UPPER[0]), 0, 0 },
	{ "mmGFX_GOLDEN_TSC_SHADOW_LOWER", REG_MMIO, 0x0107, 1, &mmGFX_GOLDEN_TSC_SHADOW_LOWER[0], sizeof(mmGFX_GOLDEN_TSC_SHADOW_LOWER)/sizeof(mmGFX_GOLDEN_TSC_SHADOW_LOWER[0]), 0, 0 },
	{ "mmPWR_VIRT_RESET_REQ", REG_MMIO, 0x0108, 1, &mmPWR_VIRT_RESET_REQ[0], sizeof(mmPWR_VIRT_RESET_REQ)/sizeof(mmPWR_VIRT_RESET_REQ[0]), 0, 0 },
	{ "mmSCRATCH_REGISTER0", REG_MMIO, 0x0110, 1, &mmSCRATCH_REGISTER0[0], sizeof(mmSCRATCH_REGISTER0)/sizeof(mmSCRATCH_REGISTER0[0]), 0, 0 },
	{ "mmSCRATCH_REGISTER1", REG_MMIO, 0x0111, 1, &mmSCRATCH_REGISTER1[0], sizeof(mmSCRATCH_REGISTER1)/sizeof(mmSCRATCH_REGISTER1[0]), 0, 0 },
	{ "mmSCRATCH_REGISTER2", REG_MMIO, 0x0112, 1, &mmSCRATCH_REGISTER2[0], sizeof(mmSCRATCH_REGISTER2)/sizeof(mmSCRATCH_REGISTER2[0]), 0, 0 },
	{ "mmSCRATCH_REGISTER3", REG_MMIO, 0x0113, 1, &mmSCRATCH_REGISTER3[0], sizeof(mmSCRATCH_REGISTER3)/sizeof(mmSCRATCH_REGISTER3[0]), 0, 0 },
	{ "mmSCRATCH_REGISTER4", REG_MMIO, 0x0114, 1, &mmSCRATCH_REGISTER4[0], sizeof(mmSCRATCH_REGISTER4)/sizeof(mmSCRATCH_REGISTER4[0]), 0, 0 },
	{ "mmSCRATCH_REGISTER5", REG_MMIO, 0x0115, 1, &mmSCRATCH_REGISTER5[0], sizeof(mmSCRATCH_REGISTER5)/sizeof(mmSCRATCH_REGISTER5[0]), 0, 0 },
	{ "mmSCRATCH_REGISTER6", REG_MMIO, 0x0116, 1, &mmSCRATCH_REGISTER6[0], sizeof(mmSCRATCH_REGISTER6)/sizeof(mmSCRATCH_REGISTER6[0]), 0, 0 },
	{ "mmSCRATCH_REGISTER7", REG_MMIO, 0x0117, 1, &mmSCRATCH_REGISTER7[0], sizeof(mmSCRATCH_REGISTER7)/sizeof(mmSCRATCH_REGISTER7[0]), 0, 0 },
	{ "mmPWR_DISP_TIMER_CONTROL", REG_MMIO, 0x012c, 1, &mmPWR_DISP_TIMER_CONTROL[0], sizeof(mmPWR_DISP_TIMER_CONTROL)/sizeof(mmPWR_DISP_TIMER_CONTROL[0]), 0, 0 },
	{ "mmPWR_DISP_TIMER2_CONTROL", REG_MMIO, 0x012e, 1, &mmPWR_DISP_TIMER2_CONTROL[0], sizeof(mmPWR_DISP_TIMER2_CONTROL)/sizeof(mmPWR_DISP_TIMER2_CONTROL[0]), 0, 0 },
	{ "mmPWR_DISP_TIMER_GLOBAL_CONTROL", REG_MMIO, 0x0130, 1, &mmPWR_DISP_TIMER_GLOBAL_CONTROL[0], sizeof(mmPWR_DISP_TIMER_GLOBAL_CONTROL)/sizeof(mmPWR_DISP_TIMER_GLOBAL_CONTROL[0]), 0, 0 },
	{ "mmPWR_IH_CONTROL", REG_MMIO, 0x0131, 1, &mmPWR_IH_CONTROL[0], sizeof(mmPWR_IH_CONTROL)/sizeof(mmPWR_IH_CONTROL[0]), 0, 0 },
