static struct umr_bitfield mmSMUIO_GFX_MISC_CNTL[] = {
	 { "PWR_GFXOFF_STATUS", 1, 2, &umr_bitfield_default },
};
static struct umr_bitfield mmPWR_MISC_CNTL_STATUS[] = {
	 { "PWR_GFX_RLC_CGPG_EN", 0, 0, &umr_bitfield_default },
	 { "PWR_GFXOFF_STATUS", 1, 2, &umr_bitfield_default },
};
