	{ "ATHUB",
		{
			{ 0x00000C20, 0, 0, 0, 0,  },
			{ 0x00012460, 0, 0, 0, 0,  },
			{ 0x00408C00, 0, 0, 0, 0,  },
			{ 0, 0, 0, 0, 0,  },
			{ 0, 0, 0, 0, 0,  },
		}
	},
	{ "CLK",
		{
			{ 0x000120C0, 0x000120E0, 0x00012100, 0x00012120, 0x000136C0,  },
			{ 0x00016C00, 0x00016E00, 0x00017000, 0x00017200, 0x0001B000,  },
			{ 0x00401800, 0x00401C00, 0x00402000, 0x00402400, 0x0042D800,  },
			{ 0, 0, 0, 0, 0,  },
			{ 0, 0, 0, 0, 0,  },
		}
	},
	{ "DF",
		{
			{ 0x00007000, 0, 0, 0, 0,  },
			{ 0x000125C0, 0, 0, 0, 0,  },
			{ 0x0040B800, 0, 0, 0, 0,  },
			{ 0, 0, 0, 0, 0,  },
			{ 0, 0, 0, 0, 0,  },
		}
	},
	{ "FUSE",
		{
			{ 0x000120A0, 0, 0, 0, 0,  },
			{ 0x00017400, 0, 0, 0, 0,  },
			{ 0x00401400, 0, 0, 0, 0,  },
			{ 0, 0, 0, 0, 0,  },
			{ 0, 0, 0, 0, 0,  },
		}
	},
	{ "GC",
		{
			{ 0x00002000, 0, 0, 0, 0,  },
			{ 0x0000A000, 0, 0, 0, 0,  },
			{ 0x00012160, 0, 0, 0, 0,  },
			{ 0x00402C00, 0, 0, 0, 0,  },
			{ 0, 0, 0, 0, 0,  },
		}
	},
	{ "HDP",
		{
			{ 0x00000F20, 0, 0, 0, 0,  },
			{ 0x00012520, 0, 0, 0, 0,  },
			{ 0x0040A400, 0, 0, 0, 0,  },
			{ 0, 0, 0, 0, 0,  },
			{ 0, 0, 0, 0, 0,  },
		}
	},
	{ "MMHUB",
		{
			{ 0x00012440, 0, 0, 0, 0,  },
			{ 0x0001A000, 0, 0, 0, 0,  },
			{ 0x00408800, 0, 0, 0, 0,  },
			{ 0, 0, 0, 0, 0,  },
			{ 0, 0, 0, 0, 0,  },
		}
	},
	{ "MP0",
		{
			{ 0x00013FE0, 0, 0, 0, 0,  },
			{ 0x00016000, 0, 0, 0, 0,  },
			{ 0x0043FC00, 0, 0, 0, 0,  },
			{ 0x00DC0000, 0, 0, 0, 0,  },
			{ 0x00E00000, 0, 0, 0, 0,  },
		}
	},
	{ "MP1",
		{
			{ 0x00012020, 0, 0, 0, 0,  },
			{ 0x00016200, 0, 0, 0, 0,  },
			{ 0x00400400, 0, 0, 0, 0,  },
			{ 0x00E80000, 0, 0, 0, 0,  },
			{ 0x00EC0000, 0, 0, 0, 0,  },
		}
	},
	{ "NBIF0",
		{
			{ 0x00000000, 0, 0, 0, 0,  },
			{ 0x00000014, 0, 0, 0, 0,  },
			{ 0x00000D20, 0, 0, 0, 0,  },
			{ 0x00010400, 0, 0, 0, 0,  },
			{ 0x00012D80, 0, 0, 0, 0,  },
		}
	},
	{ "OSSSYS",
		{
			{ 0x000010A0, 0, 0, 0, 0,  },
			{ 0x00012500, 0, 0, 0, 0,  },
			{ 0x0040A000, 0, 0, 0, 0,  },
			{ 0, 0, 0, 0, 0,  },
			{ 0, 0, 0, 0, 0,  },
		}
	},
	{ "PCIE0",
		{
			{ 0x000128C0, 0, 0, 0, 0,  },
			{ 0x00411800, 0, 0, 0, 0,  },
			{ 0x04440000, 0, 0, 0, 0,  },
			{ 0, 0, 0, 0, 0,  },
			{ 0, 0, 0, 0, 0,  },
		}
	},
	{ "RSMU",
		{
			{ 0x00012000, 0, 0, 0, 0,  },
			{ 0, 0, 0, 0, 0,  },
			{ 0, 0, 0, 0, 0,  },
			{ 0, 0, 0, 0, 0,  },
			{ 0, 0, 0, 0, 0,  },
		}
	},
	{ "SDMA0",
		{
			{ 0x00001260, 0, 0, 0, 0,  },
			{ 0x00012540, 0, 0, 0, 0,  },
			{ 0x0040A800, 0, 0, 0, 0,  },
			{ 0, 0, 0, 0, 0,  },
			{ 0, 0, 0, 0, 0,  },
		}
	},
	{ "SDMA1",
		{
			{ 0x00001860, 0, 0, 0, 0,  },
			{ 0x00012560, 0, 0, 0, 0,  },
			{ 0x0040AC00, 0, 0, 0, 0,  },
			{ 0, 0, 0, 0, 0,  },
			{ 0, 0, 0, 0, 0,  },
		}
	},
	{ "SDMA2",
		{
			{ 0x00013760, 0, 0, 0, 0,  },
			{ 0x0001E000, 0, 0, 0, 0,  },
			{ 0x0042EC00, 0, 0, 0, 0,  },
			{ 0, 0, 0, 0, 0,  },
			{ 0, 0, 0, 0, 0,  },
		}
	},
	{ "SDMA3",
		{
			{ 0x00013780, 0, 0, 0, 0,  },
			{ 0x0001E400, 0, 0, 0, 0,  },
			{ 0x0042F000, 0, 0, 0, 0,  },
			{ 0, 0, 0, 0, 0,  },
			{ 0, 0, 0, 0, 0,  },
		}
	},
	{ "SDMA4",
		{
			{ 0x000137A0, 0, 0, 0, 0,  },
			{ 0x0001E800, 0, 0, 0, 0,  },
			{ 0x0042F400, 0, 0, 0, 0,  },
			{ 0, 0, 0, 0, 0,  },
			{ 0, 0, 0, 0, 0,  },
		}
	},
	{ "SDMA5",
		{
			{ 0x000137C0, 0, 0, 0, 0,  },
			{ 0x0001EC00, 0, 0, 0, 0,  },
			{ 0x0042F800, 0, 0, 0, 0,  },
			{ 0, 0, 0, 0, 0,  },
			{ 0, 0, 0, 0, 0,  },
		}
	},
	{ "SDMA6",
		{
			{ 0x000137E0, 0, 0, 0, 0,  },
			{ 0x0001F000, 0, 0, 0, 0,  },
			{ 0x0042FC00, 0, 0, 0, 0,  },
			{ 0, 0, 0, 0, 0,  },
			{ 0, 0, 0, 0, 0,  },
		}
	},
	{ "SDMA7",
		{
			{ 0x00013800, 0, 0, 0, 0,  },
			{ 0x0001F400, 0, 0, 0, 0,  },
			{ 0x00430000, 0, 0, 0, 0,  },
			{ 0, 0, 0, 0, 0,  },
			{ 0, 0, 0, 0, 0,  },
		}
	},
	{ "SMUIO",
		{
			{ 0x00012080, 0, 0, 0, 0,  },
			{ 0x00016800, 0, 0, 0, 0,  },
			{ 0x00016A00, 0, 0, 0, 0,  },
			{ 0x00401000, 0, 0, 0, 0,  },
			{ 0x00440000, 0, 0, 0, 0,  },
		}
	},
	{ "THM",
		{
			{ 0x00012060, 0, 0, 0, 0,  },
			{ 0x00016600, 0, 0, 0, 0,  },
			{ 0x00400C00, 0, 0, 0, 0,  },
			{ 0, 0, 0, 0, 0,  },
			{ 0, 0, 0, 0, 0,  },
		}
	},
	{ "UMC",
		{
			{ 0x000132C0, 0x000132E0, 0x00013300, 0x00013320, 0x00013340,  },
			{ 0x00014000, 0x00054000, 0x00094000, 0x000D4000, 0x00114000,  },
			{ 0x00425800, 0x00425C00, 0x00426000, 0x00426400, 0x00426800,  },
			{ 0, 0, 0, 0, 0,  },
			{ 0, 0, 0, 0, 0,  },
		}
	},
	{ "UVD",
		{
			{ 0x00007800, 0x00007A00, 0, 0, 0,  },
			{ 0x00007E00, 0x00009000, 0, 0, 0,  },
			{ 0x00012180, 0x000136E0, 0, 0, 0,  },
			{ 0x00403000, 0x0042DC00, 0, 0, 0,  },
			{ 0, 0, 0, 0, 0,  },
		}
	},
